# 3ds Max Wavefront OBJ Exporter v0.97b - (c)2007 guruware
# File Created: 10.01.2018 12:25:41

#
# object Herb_01
#

v  -4.7670 0.0000 4.6907
v  -3.5337 0.0000 5.7953
v  -3.1954 0.5006 3.1443
v  -5.9213 0.0000 3.4959
v  -1.3128 0.0000 6.4588
v  -1.1799 0.6154 3.4831
v  1.3128 0.0000 6.4588
v  1.1799 0.6154 3.4831
v  3.5337 0.0000 5.7953
v  3.1954 0.5006 3.1443
v  4.7670 0.0000 4.6907
v  5.9213 0.0000 3.4959
v  -3.5223 0.5997 1.1553
v  -6.5639 0.0000 1.2918
v  -1.0584 0.7274 1.0415
v  1.0584 0.7274 1.0415
v  3.5224 0.5997 1.1553
v  6.5639 0.0000 1.2918
v  -3.5223 0.5997 -1.1553
v  -6.5639 0.0000 -1.2918
v  -1.0584 0.7274 -1.0415
v  1.0584 0.7274 -1.0415
v  3.5224 0.5997 -1.1553
v  6.5639 0.0000 -1.2918
v  -3.1954 0.5006 -3.1443
v  -5.9213 0.0000 -3.4959
v  -1.1799 0.6154 -3.4831
v  1.1799 0.6154 -3.4831
v  3.1954 0.5006 -3.1443
v  5.9213 0.0000 -3.4959
v  -3.5337 0.0000 -5.7953
v  -4.7670 0.0000 -4.6907
v  -1.3128 0.0000 -6.4588
v  1.3128 0.0000 -6.4588
v  3.5337 0.0000 -5.7953
v  4.7670 0.0000 -4.6907
v  -2.5768 4.1674 -1.2955
v  -1.2716 4.3116 -0.9456
v  -1.1789 4.7987 -2.2950
v  -2.9363 4.6284 -2.2950
v  -0.1107 3.6981 -1.2955
v  0.3930 3.9948 -2.2950
v  -0.1107 3.6981 -3.2945
v  -1.2716 4.3116 -3.6443
v  -2.5768 4.1674 -3.2945
v  -4.3072 0.5601 -0.7829
v  -2.4084 0.5438 -0.2537
v  -1.8691 2.2927 -0.4959
v  -3.5256 2.6497 -0.9456
v  -0.2126 1.9358 -0.9456
v  0.3568 2.5179 -2.2950
v  0.0200 1.8856 -3.0758
v  -0.2126 1.9358 -3.6443
v  0.0200 1.8856 -1.5141
v  -4.3072 0.5601 -3.8070
v  -3.5256 2.6497 -3.6443
v  -1.8691 2.2927 -4.0941
v  -2.4084 0.5438 -4.3362
v  -4.9718 0.5438 -2.2950
v  -4.0778 2.7687 -2.2950
v  0.0295 1.9034 -3.6443
v  -0.3893 1.1170 -3.7411
v  -0.6867 0.5586 -0.7336
v  -0.3893 1.1170 -0.8488
v  -0.6867 0.5586 -3.8564
v  0.0295 1.9034 -0.9456
v  2.6480 1.8603 -1.2955
v  3.2311 1.8193 -2.2950
v  2.4233 2.9294 -2.2950
v  2.0906 2.2790 -0.9456
v  1.2420 2.4921 -1.2955
v  1.2071 3.0756 -2.2950
v  1.2420 2.4921 -3.2945
v  2.0906 2.2790 -3.6443
v  2.6480 1.8603 -3.2945
v  2.6362 0.1980 -0.7829
v  2.7332 0.9045 -0.9456
v  1.6139 1.3226 -0.4959
v  1.1199 0.3678 -0.2537
v  0.1915 1.7206 -0.9456
v  0.1915 1.7206 -3.6443
v  2.6362 0.1980 -3.8070
v  1.1199 0.3678 -4.3362
v  1.6139 1.3226 -4.0941
v  2.7332 0.9045 -3.6443
v  3.2795 0.6067 -2.2950
v  3.3006 0.1745 -2.2950
v  -4.3824 1.6399 0.4780
v  -3.8001 1.7043 0.6881
v  -3.7588 1.9216 -0.1223
v  -4.5428 1.8456 -0.1223
v  -3.2822 1.4305 0.4780
v  -3.0575 1.5629 -0.1223
v  -3.2822 1.4305 -0.7226
v  -3.8001 1.7043 -0.9327
v  -4.3824 1.6399 -0.7226
v  -5.1544 0.0306 0.7859
v  -4.3073 0.0233 1.1037
v  -4.0667 0.8036 0.9583
v  -4.8057 0.9628 0.6881
v  -3.4601 0.0306 0.7859
v  -3.3277 0.6443 0.6881
v  -3.1636 0.0233 -0.1223
v  -3.0813 0.5912 -0.1223
v  -3.4601 0.0306 -1.0304
v  -3.3277 0.6443 -0.9327
v  -4.3073 0.0233 -1.3482
v  -4.0667 0.8036 -1.2028
v  -5.1544 0.0306 -1.0304
v  -4.8057 0.9628 -0.9327
v  -5.4509 0.0233 -0.1223
v  -5.0520 1.0159 -0.1223
v  -6.2506 0.7470 1.7807
v  -5.9093 0.7847 1.9038
v  -5.8851 0.9120 1.4289
v  -6.3446 0.8675 1.4289
v  -5.6058 0.6242 1.7807
v  -5.4741 0.7018 1.4289
v  -5.6058 0.6242 1.0771
v  -5.9093 0.7847 0.9539
v  -6.2506 0.7470 1.0771
v  -6.7030 -0.1962 1.9611
v  -6.2066 -0.2005 2.1474
v  -6.0656 0.2568 2.0621
v  -6.4987 0.3501 1.9038
v  -5.7101 -0.1962 1.9611
v  -5.6324 0.1635 1.9038
v  -5.5363 -0.2005 1.4289
v  -5.4881 0.1323 1.4289
v  -5.7101 -0.1962 0.8967
v  -5.6324 0.1635 0.9539
v  -6.2066 -0.2005 0.7104
v  -6.0656 0.2568 0.7956
v  -6.7030 -0.1962 0.8967
v  -6.4987 0.3501 0.9539
v  -6.8768 -0.2005 1.4289
v  -6.6430 0.3812 1.4289
v  -1.7995 1.3592 2.8249
v  -1.4582 1.3969 2.9480
v  -1.4340 1.5243 2.4731
v  -1.8934 1.4798 2.4731
v  -1.1546 1.2365 2.8249
v  -1.0229 1.3141 2.4731
v  -1.1546 1.2365 2.1212
v  -1.4582 1.3969 1.9981
v  -1.7995 1.3592 2.1212
v  -2.2519 0.4160 3.0053
v  -1.7554 0.4118 3.1916
v  -1.6144 0.8691 3.1063
v  -2.0475 0.9624 2.9480
v  -1.2589 0.4160 3.0053
v  -1.1813 0.7757 2.9480
v  -1.0852 0.4118 2.4731
v  -1.0369 0.7446 2.4731
v  -1.2589 0.4160 1.9408
v  -1.1813 0.7757 1.9981
v  -1.7554 0.4118 1.7546
v  -1.6144 0.8691 1.8398
v  -2.2519 0.4160 1.9408
v  -2.0475 0.9624 1.9981
v  -2.4257 0.4118 2.4731
v  -2.1919 0.9935 2.4731
v  -2.1595 2.7967 1.6406
v  -1.5654 2.8876 1.7999
v  -1.5232 3.1949 1.1857
v  -2.3231 3.0874 1.1857
v  -1.0369 2.5007 1.6406
v  -0.8077 2.6878 1.1857
v  -1.0369 2.5007 0.7307
v  -1.5654 2.8876 0.5715
v  -2.1595 2.7967 0.7307
v  -2.9471 0.5216 1.8739
v  -2.0828 0.5113 2.1148
v  -1.8373 1.6143 2.0046
v  -2.5914 1.8395 1.7999
v  -1.0833 1.3892 1.7999
v  -0.8242 1.7564 1.1857
v  -0.9774 1.3576 0.8303
v  -1.0833 1.3892 0.5715
v  -0.9774 1.3576 1.5411
v  -2.9471 0.5216 0.4974
v  -2.5914 1.8395 0.5715
v  -1.8373 1.6143 0.3668
v  -2.0828 0.5113 0.2566
v  -3.2496 0.5113 1.1857
v  -2.8427 1.9145 1.1857
v  -0.9731 1.3688 0.5715
v  -1.1638 0.8728 0.5274
v  -1.2991 0.5206 1.8964
v  -1.1638 0.8728 1.8440
v  -1.2991 0.5206 0.4750
v  -0.9731 1.3688 1.7999
v  0.2187 1.3416 1.6406
v  0.4842 1.3158 1.1857
v  0.1165 2.0159 1.1857
v  -0.0350 1.6057 1.7999
v  -0.4212 1.7401 1.6406
v  -0.4371 2.1081 1.1857
v  -0.4212 1.7401 0.7307
v  -0.0350 1.6057 0.5715
v  0.2187 1.3416 0.7307
v  0.2134 0.2932 1.8739
v  0.2575 0.7388 1.7999
v  -0.2519 1.0025 2.0046
v  -0.4768 0.4003 2.1148
v  -0.8994 1.2535 1.7999
v  -0.8994 1.2535 0.5715
v  0.2134 0.2932 0.4974
v  -0.4768 0.4003 0.2566
v  -0.2519 1.0025 0.3668
v  0.2575 0.7388 0.5715
v  0.5062 0.5510 1.1857
v  0.5158 0.2784 1.1857
v  0.1520 2.8481 0.1840
v  0.9932 2.9411 0.4095
v  1.0530 3.2550 -0.4602
v  -0.0797 3.1452 -0.4602
v  1.7415 2.5456 0.1840
v  2.0662 2.7369 -0.4602
v  1.7415 2.5456 -1.1044
v  0.9932 2.9411 -1.3299
v  0.1520 2.8481 -1.1044
v  -0.9634 0.5230 0.5144
v  0.2605 0.5125 0.8555
v  0.6081 1.6398 0.6994
v  -0.4596 1.8699 0.4095
v  1.6758 1.4097 0.4095
v  2.0428 1.7849 -0.4602
v  1.8258 1.3774 -0.9635
v  1.6758 1.4097 -1.3299
v  1.8258 1.3774 0.0431
v  -0.9634 0.5230 -1.4348
v  -0.4596 1.8699 -1.3299
v  0.6081 1.6398 -1.6198
v  0.2605 0.5125 -1.7759
v  -1.3917 0.5125 -0.4602
v  -0.8155 1.9466 -0.4602
v  1.8319 1.3888 -1.3299
v  1.5619 0.8819 -1.3923
v  1.3702 0.5220 0.5462
v  1.5619 0.8819 0.4719
v  1.3702 0.5220 -1.4666
v  1.8319 1.3888 0.4095
v  3.5196 1.3611 0.1840
v  3.8955 1.3347 -0.4602
v  3.3748 2.0502 -0.4602
v  3.1603 1.6309 0.4095
v  2.6134 1.7683 0.1840
v  2.5909 2.1444 -0.4602
v  2.6134 1.7683 -1.1044
v  3.1603 1.6309 -1.3299
v  3.5196 1.3611 -1.1044
v  3.5120 0.2897 0.5144
v  3.5745 0.7450 0.4095
v  2.8531 1.0145 0.6994
v  2.5347 0.3991 0.8555
v  1.9363 1.2710 0.4095
v  1.9363 1.2710 -1.3299
v  3.5120 0.2897 -1.4348
v  2.5347 0.3991 -1.7759
v  2.8531 1.0145 -1.6198
v  3.5745 0.7450 -1.3299
v  3.9266 0.5530 -0.4602
v  3.9402 0.2745 -0.4602
v  5.7265 0.7049 1.3682
v  6.0677 0.7426 1.4913
v  6.0920 0.8700 1.0163
v  5.6325 0.8254 1.0163
v  6.3713 0.5822 1.3682
v  6.5030 0.6598 1.0163
v  6.3713 0.5822 0.6645
v  6.0677 0.7426 0.5414
v  5.7265 0.7049 0.6645
v  5.2740 -0.2383 1.5486
v  5.7705 -0.2425 1.7348
v  5.9115 0.2147 1.6496
v  5.4784 0.3081 1.4913
v  6.2670 -0.2383 1.5486
v  6.3446 0.1214 1.4913
v  6.4408 -0.2425 1.0163
v  6.4890 0.0903 1.0163
v  6.2670 -0.2383 0.4841
v  6.3446 0.1214 0.5414
v  5.7705 -0.2425 0.2978
v  5.9115 0.2147 0.3831
v  5.2740 -0.2383 0.4841
v  5.4784 0.3081 0.5414
v  5.1003 -0.2425 1.0163
v  5.3340 0.3392 1.0163
v  2.7681 0.7484 6.4797
v  3.1094 0.7904 6.6169
v  3.1336 0.9324 6.0875
v  2.6742 0.8828 6.0875
v  3.4130 0.6116 6.4797
v  3.5446 0.6981 6.0875
v  3.4130 0.6116 5.6952
v  3.1094 0.7904 5.5580
v  2.7681 0.7484 5.6952
v  2.3157 -0.3031 6.6808
v  2.8122 -0.3079 6.8885
v  2.9532 0.2019 6.7934
v  2.5201 0.3060 6.6169
v  3.3087 -0.3031 6.6808
v  3.3863 0.0979 6.6169
v  3.4824 -0.3079 6.0875
v  3.5307 0.0632 6.0875
v  3.3087 -0.3031 5.4941
v  3.3863 0.0979 5.5580
v  2.8122 -0.3079 5.2864
v  2.9532 0.2019 5.3815
v  2.3157 -0.3031 5.4941
v  2.5201 0.3060 5.5580
v  2.1419 -0.3079 6.0875
v  2.3757 0.3407 6.0875
v  1.3942 0.6662 6.1043
v  1.6690 0.7000 6.2149
v  1.6885 0.8144 5.7885
v  1.3185 0.7744 5.7885
v  1.9134 0.5560 6.1043
v  2.0194 0.6257 5.7885
v  1.9134 0.5560 5.4727
v  1.6690 0.7000 5.3621
v  1.3942 0.6662 5.4727
v  1.0299 -0.1805 6.2663
v  1.4296 -0.1843 6.4335
v  1.5432 0.2262 6.3570
v  1.1944 0.3100 6.2149
v  1.8294 -0.1805 6.2663
v  1.8919 0.1424 6.2149
v  1.9694 -0.1843 5.7885
v  2.0082 0.1144 5.7885
v  1.8294 -0.1805 5.3107
v  1.8919 0.1424 5.3621
v  1.4296 -0.1843 5.1435
v  1.5432 0.2262 5.2200
v  1.0299 -0.1805 5.3107
v  1.1944 0.3100 5.3621
v  0.8899 -0.1843 5.7885
v  1.0782 0.3379 5.7885
v  4.5448 0.9578 4.6806
v  4.8894 1.0106 4.7730
v  4.9139 1.1888 4.4167
v  4.4498 1.1265 4.4167
v  5.1960 0.7861 4.6806
v  5.3290 0.8947 4.4167
v  5.1960 0.7861 4.1528
v  4.8894 1.0106 4.0604
v  4.5448 0.9578 4.1528
v  4.0878 -0.3620 4.8160
v  4.5892 -0.3679 4.9557
v  4.7316 0.2719 4.8918
v  4.2942 0.4026 4.7730
v  5.1691 0.1413 4.7730
v  5.3194 0.3543 4.4167
v  5.2305 0.1230 4.2105
v  5.1691 0.1413 4.0604
v  5.2305 0.1230 4.6229
v  4.0878 -0.3620 4.0174
v  4.2942 0.4026 4.0604
v  4.7316 0.2719 3.9416
v  4.5892 -0.3679 3.8777
v  3.9123 -0.3679 4.4167
v  4.1484 0.4461 4.4167
v  5.2330 0.1295 4.0604
v  5.1224 -0.1582 4.0348
v  5.0439 -0.3626 4.8290
v  5.1224 -0.1582 4.7986
v  5.0439 -0.3626 4.0044
v  5.2330 0.1295 4.7730
v  5.9244 0.1137 4.6806
v  6.0784 0.0987 4.4167
v  5.8651 0.5049 4.4167
v  5.7772 0.2669 4.7730
v  5.5532 0.3449 4.6806
v  5.5440 0.5584 4.4167
v  5.5532 0.3449 4.1528
v  5.7772 0.2669 4.0604
v  5.9244 0.1137 4.1528
v  5.9213 -0.4945 4.8160
v  5.9469 -0.2360 4.7730
v  5.6514 -0.0830 4.8918
v  5.5209 -0.4323 4.9557
v  5.2758 0.0626 4.7730
v  5.2758 0.0626 4.0604
v  5.9213 -0.4945 4.0174
v  5.5209 -0.4323 3.8777
v  5.6514 -0.0830 3.9416
v  5.9469 -0.2360 4.0604
v  6.0912 -0.3449 4.4167
v  6.0967 -0.5031 4.4167
v  -6.4880 1.7153 -3.5895
v  -6.1713 1.7858 -3.4661
v  -6.1488 2.0239 -3.9421
v  -6.5753 1.9406 -3.9421
v  -5.8895 1.4859 -3.5895
v  -5.7672 1.6309 -3.9421
v  -5.8895 1.4859 -4.2947
v  -6.1713 1.7858 -4.4181
v  -6.4880 1.7153 -4.2947
v  -6.9080 -0.0480 -3.4087
v  -6.4472 -0.0560 -3.2220
v  -6.3163 0.7989 -3.3074
v  -6.7183 0.9734 -3.4661
v  -5.9142 0.6244 -3.4661
v  -5.7760 0.9090 -3.9421
v  -5.8578 0.5999 -4.2176
v  -5.9142 0.6244 -4.4181
v  -5.8578 0.5999 -3.6667
v  -6.9080 -0.0480 -4.4755
v  -6.7183 0.9734 -4.4181
v  -6.3163 0.7989 -4.5768
v  -6.4472 -0.0560 -4.6622
v  -7.0693 -0.0560 -3.9421
v  -6.8523 1.0316 -3.9421
v  -5.8555 0.6086 -4.4181
v  -5.9571 0.2242 -4.4523
v  -6.0293 -0.0488 -3.3913
v  -5.9571 0.2242 -3.4319
v  -6.0293 -0.0488 -4.4930
v  -5.8555 0.6086 -3.4661
v  -5.2199 0.5876 -3.5895
v  -5.0784 0.5675 -3.9421
v  -5.2745 1.1101 -3.9421
v  -5.3552 0.7922 -3.4661
v  -5.5612 0.8964 -3.5895
v  -5.5696 1.1816 -3.9421
v  -5.5612 0.8964 -4.2947
v  -5.3552 0.7922 -4.4181
v  -5.2199 0.5876 -4.2947
v  -5.2228 -0.2250 -3.4087
v  -5.1993 0.1203 -3.4661
v  -5.4709 0.3247 -3.3074
v  -5.5908 -0.1420 -3.2220
v  -5.8162 0.5192 -3.4661
v  -5.8162 0.5192 -4.4181
v  -5.2228 -0.2250 -4.4755
v  -5.5908 -0.1420 -4.6622
v  -5.4709 0.3247 -4.5768
v  -5.1993 0.1203 -4.4181
v  -5.0667 -0.0253 -3.9421
v  -5.0615 -0.2365 -3.9421
# 441 vertices

vn -0.1537 0.9752 0.1595
vn -0.0978 0.9786 0.1813
vn -0.1119 0.9876 0.1101
vn -0.1750 0.9799 0.0955
vn -0.0278 0.9791 0.2012
vn -0.0348 0.9918 0.1232
vn 0.0318 0.9802 0.1953
vn 0.0372 0.9910 0.1285
vn 0.0891 0.9812 0.1714
vn 0.1164 0.9864 0.1158
vn 0.0000 1.0000 -0.0000
vn 0.1664 0.9821 0.0887
vn -0.1220 0.9920 0.0316
vn -0.1923 0.9810 0.0260
vn -0.0266 0.9994 0.0236
vn 0.0250 0.9994 0.0220
vn 0.1266 0.9914 0.0332
vn 0.1874 0.9818 0.0292
vn -0.1266 0.9914 -0.0332
vn -0.1874 0.9818 -0.0292
vn -0.0250 0.9994 -0.0220
vn 0.0266 0.9994 -0.0236
vn 0.1220 0.9920 -0.0316
vn 0.1923 0.9810 -0.0260
vn -0.1164 0.9864 -0.1158
vn -0.1664 0.9821 -0.0887
vn -0.0372 0.9910 -0.1285
vn 0.0348 0.9918 -0.1232
vn 0.1119 0.9876 -0.1101
vn 0.1750 0.9799 -0.0955
vn -0.0891 0.9812 -0.1714
vn -0.0318 0.9802 -0.1953
vn 0.0278 0.9791 -0.2012
vn 0.0978 0.9786 -0.1813
vn 0.1537 0.9752 -0.1595
vn -0.4037 0.6340 0.6596
vn 0.1329 0.6507 0.7476
vn 0.1870 0.9824 0.0000
vn -0.5403 0.8415 -0.0000
vn 0.6366 0.3780 0.6722
vn 0.8522 0.5232 0.0000
vn 0.6366 0.3780 -0.6722
vn 0.1329 0.6507 -0.7476
vn -0.4037 0.6340 -0.6596
vn -0.6554 0.3065 0.6903
vn -0.0478 0.1514 0.9873
vn 0.0313 0.1783 0.9835
vn -0.5706 0.3822 0.7269
vn 0.5315 0.0800 0.8433
vn 0.4935 0.8697 0.0000
vn 0.3464 0.6504 -0.6760
vn 0.5316 0.0802 -0.8432
vn 0.3464 0.6504 0.6760
vn -0.6554 0.3065 -0.6903
vn -0.5706 0.3822 -0.7269
vn 0.0313 0.1781 -0.9835
vn -0.0473 0.1517 -0.9873
vn -0.9279 0.3729 -0.0000
vn -0.8834 0.4686 0.0000
vn 0.1326 0.9906 0.0331
vn 0.0153 0.1142 -0.9933
vn 0.1004 0.1582 0.9823
vn 0.0842 0.1582 0.9838
vn 0.0332 0.1942 -0.9804
vn 0.0903 0.1549 -0.9838
vn 0.1326 0.9906 -0.0331
vn 0.0153 0.1142 0.9933
vn 0.7426 0.3417 0.5760
vn 0.9548 0.2971 -0.0000
vn 0.4831 0.8756 0.0000
vn 0.3088 0.5743 0.7581
vn -0.1791 0.7634 0.6207
vn -0.1971 0.9804 -0.0000
vn -0.1791 0.7634 -0.6207
vn 0.3088 0.5743 -0.7581
vn 0.7426 0.3417 -0.5760
vn 0.6724 0.0578 0.7379
vn 0.7375 0.1656 0.6547
vn 0.1326 0.3119 0.9408
vn 0.0004 0.2456 0.9694
vn -0.2837 0.5420 0.7910
vn -0.2832 0.5498 -0.7858
vn 0.6724 0.0578 -0.7379
vn 0.0054 0.2386 -0.9711
vn 0.1346 0.3126 -0.9403
vn 0.7375 0.1656 -0.6547
vn 0.9977 0.0684 0.0000
vn 0.9988 0.0487 -0.0000
vn 0.7480 0.6629 0.0331
vn 0.0862 0.0764 -0.9933
vn 0.7480 0.6629 -0.0331
vn 0.0862 0.0764 0.9933
vn -0.4488 0.6961 0.5604
vn 0.1436 0.6884 0.7110
vn -0.5384 0.8427 -0.0000
vn 0.7186 0.3982 0.5701
vn 0.8596 0.5109 -0.0000
vn 0.7186 0.3982 -0.5701
vn 0.1436 0.6884 -0.7110
vn -0.4488 0.6961 -0.5604
vn -0.6993 0.3385 0.6297
vn -0.0600 0.2007 0.9778
vn 0.0423 0.2342 0.9713
vn -0.6158 0.4247 0.6637
vn 0.6736 -0.0267 0.7386
vn 0.7381 0.0370 0.6737
vn 0.9897 -0.1434 0.0000
vn 0.9971 -0.0763 0.0000
vn 0.6736 -0.0267 -0.7386
vn 0.7381 0.0370 -0.6737
vn -0.0600 0.2007 -0.9778
vn 0.0423 0.2342 -0.9713
vn -0.6993 0.3385 -0.6297
vn -0.6158 0.4247 -0.6637
vn -0.9279 0.3729 0.0000
vn -0.8841 0.4673 0.0000
vn -0.5384 0.8427 0.0000
vn 0.8596 0.5109 0.0000
vn 0.1870 0.9824 -0.0000
vn 0.9897 -0.1434 -0.0000
vn 0.9971 -0.0763 -0.0000
vn -0.8841 0.4673 -0.0000
vn -0.4555 0.5309 0.7146
vn 0.1462 0.6026 0.7845
vn 0.2248 0.9744 -0.0000
vn -0.5848 0.8112 -0.0000
vn 0.6520 0.2890 0.7010
vn 0.8735 0.4868 -0.0000
vn 0.6520 0.2890 -0.7010
vn 0.1462 0.6026 -0.7845
vn -0.4555 0.5309 -0.7146
vn -0.6628 0.2259 0.7139
vn -0.0356 0.1072 0.9936
vn 0.0318 0.1306 0.9909
vn -0.5963 0.2919 0.7478
vn 0.5407 0.0535 0.8395
vn 0.4767 0.8791 -0.0000
vn 0.2146 0.6026 -0.7687
vn 0.5409 0.0537 -0.8394
vn 0.2146 0.6026 0.7687
vn -0.6628 0.2259 -0.7139
vn -0.5963 0.2919 -0.7478
vn 0.0318 0.1304 -0.9909
vn -0.0351 0.1075 -0.9936
vn -0.9604 0.2785 -0.0000
vn -0.9308 0.3657 -0.0000
vn 0.1822 0.9822 0.0455
vn 0.0153 0.0827 -0.9965
vn 0.0774 0.1253 0.9891
vn 0.0841 0.1151 0.9898
vn 0.0321 0.1432 -0.9892
vn 0.0684 0.1212 -0.9903
vn 0.1822 0.9822 -0.0455
vn 0.0153 0.0827 0.9965
vn 0.7570 0.2455 0.6056
vn 0.9729 0.2311 -0.0000
vn 0.5370 0.8436 -0.0000
vn 0.3160 0.4957 0.8090
vn -0.2137 0.6705 0.7104
vn -0.2342 0.9722 -0.0000
vn -0.2137 0.6705 -0.7104
vn 0.3160 0.4957 -0.8090
vn 0.7570 0.2455 -0.6056
vn 0.6856 0.0371 0.7270
vn 0.7391 0.1224 0.6623
vn 0.1352 0.2391 0.9616
vn 0.0257 0.1707 0.9850
vn -0.3081 0.4381 0.8444
vn -0.3081 0.4440 -0.8414
vn 0.6856 0.0371 -0.7270
vn 0.0299 0.1648 -0.9859
vn 0.1374 0.2399 -0.9610
vn 0.7391 0.1224 -0.6623
vn 0.9988 0.0496 -0.0000
vn 0.9994 0.0352 -0.0000
vn 0.8418 0.5384 0.0372
vn 0.0863 0.0552 -0.9947
vn 0.8418 0.5384 -0.0372
vn 0.0863 0.0552 0.9947
vn 0.4831 0.8756 -0.0000
vn 0.9977 0.0684 -0.0000
vn 0.7186 0.3983 0.5701
vn 0.7186 0.3983 -0.5701
vn -0.4857 0.6846 0.5436
vn 0.1489 0.6877 0.7106
vn 0.2012 0.9796 -0.0000
vn -0.5562 0.8311 -0.0000
vn 0.7468 0.3804 0.5455
vn 0.8668 0.4987 -0.0000
vn 0.7468 0.3804 -0.5455
vn 0.1489 0.6877 -0.7106
vn -0.4857 0.6846 -0.5436
vn -0.7202 0.3182 0.6165
vn -0.0591 0.1987 0.9783
vn 0.0464 0.2341 0.9711
vn -0.6436 0.4059 0.6489
vn 0.7016 -0.0217 0.7122
vn 0.7591 0.0396 0.6498
vn 0.9917 -0.1289 0.0000
vn 0.9976 -0.0687 -0.0000
vn 0.7016 -0.0217 -0.7122
vn 0.7591 0.0396 -0.6498
vn -0.0591 0.1987 -0.9783
vn 0.0464 0.2341 -0.9711
vn -0.7202 0.3182 -0.6165
vn -0.6436 0.4059 -0.6489
vn -0.9408 0.3391 0.0000
vn -0.9026 0.4304 -0.0000
vn 0.9917 -0.1289 -0.0000
vn -0.9408 0.3391 -0.0000
vn 0.2248 0.9744 0.0000
vn -0.5848 0.8112 0.0000
vn 0.8735 0.4868 0.0000
vn 0.4767 0.8791 0.0000
vn -0.9604 0.2785 0.0000
vn -0.9308 0.3657 0.0000
vn 0.9729 0.2311 0.0000
vn 0.5370 0.8436 0.0000
vn -0.2342 0.9722 0.0000
vn 0.9988 0.0496 0.0000
vn 0.9994 0.0352 0.0000
vn -0.5828 0.4923 0.6465
vn 0.1692 0.6045 0.7785
vn 0.2656 0.9641 -0.0000
vn -0.6296 0.7770 -0.0000
vn 0.7559 0.2322 0.6121
vn 0.9069 0.4214 -0.0000
vn 0.7559 0.2322 -0.6121
vn 0.1692 0.6045 -0.7785
vn -0.5828 0.4923 -0.6465
vn -0.7347 0.1821 0.6535
vn -0.0341 0.1045 0.9939
vn 0.0446 0.1300 0.9905
vn -0.6818 0.2450 0.6893
vn 0.6343 0.0496 0.7715
vn 0.4144 0.9101 -0.0000
vn 0.0905 0.6492 -0.7552
vn 0.6344 0.0498 -0.7714
vn 0.0905 0.6492 0.7552
vn -0.7347 0.1821 -0.6535
vn -0.6818 0.2450 -0.6893
vn 0.0446 0.1299 -0.9905
vn -0.0334 0.1050 -0.9939
vn -0.9807 0.1957 -0.0000
vn -0.9642 0.2653 -0.0000
vn 0.2601 0.9646 0.0446
vn 0.0223 0.0827 -0.9963
vn 0.0772 0.1361 0.9877
vn 0.1175 0.1158 0.9863
vn 0.0451 0.1449 -0.9884
vn 0.0665 0.1298 -0.9893
vn 0.2601 0.9646 -0.0446
vn 0.0223 0.0826 0.9963
vn 0.8521 0.1845 0.4898
vn 0.9853 0.1706 -0.0000
vn 0.5999 0.8000 -0.0000
vn 0.3528 0.4836 0.8011
vn -0.2911 0.6754 0.6775
vn -0.2739 0.9618 -0.0000
vn -0.2911 0.6754 -0.6775
vn 0.3528 0.4836 -0.8011
vn 0.8521 0.1845 -0.4898
vn 0.7790 0.0320 0.6262
vn 0.8198 0.1017 0.5635
vn 0.1768 0.2421 0.9540
vn 0.0742 0.1611 0.9842
vn -0.3815 0.4126 0.8272
vn -0.3815 0.4175 -0.8247
vn 0.7790 0.0320 -0.6262
vn 0.0783 0.1545 -0.9849
vn 0.1801 0.2435 -0.9530
vn 0.8198 0.1017 -0.5635
vn 0.9994 0.0343 -0.0000
vn 0.9997 0.0242 -0.0000
vn 0.9149 0.4026 0.0278
vn 0.1250 0.0550 -0.9906
vn 0.9149 0.4026 -0.0278
vn 0.1250 0.0550 0.9906
# 278 vertex normals

vt 0.1369 -0.0044 6.9485
vt 0.2308 -0.0044 8.4670
vt 0.2566 0.0343 4.8226
vt 0.0489 -0.0044 5.3060
vt 0.4000 -0.0044 9.3792
vt 0.4101 0.0432 5.2884
vt 0.6000 -0.0044 9.3792
vt 0.5899 0.0432 5.2884
vt 0.7692 -0.0044 8.4670
vt 0.7434 0.0343 4.8226
vt 0.8631 -0.0044 6.9485
vt 0.9511 -0.0044 5.3060
vt 0.2317 0.0420 2.0883
vt 0.0000 -0.0044 2.2758
vt 0.4194 0.0519 1.9318
vt 0.5806 0.0519 1.9318
vt 0.7683 0.0420 2.0883
vt 1.0000 -0.0044 2.2758
vt 0.2317 0.0420 -1.0883
vt 0.0000 -0.0044 -1.2758
vt 0.4194 0.0519 -0.9318
vt 0.5806 0.0519 -0.9318
vt 0.7683 0.0420 -1.0883
vt 1.0000 -0.0044 -1.2758
vt 0.2566 0.0343 -3.8226
vt 0.0489 -0.0044 -4.3060
vt 0.4101 0.0432 -4.2884
vt 0.5899 0.0432 -4.2884
vt 0.7434 0.0343 -3.8226
vt 0.9511 -0.0044 -4.3060
vt 0.2308 -0.0044 -7.4670
vt 0.1369 -0.0044 -5.9485
vt 0.4000 -0.0044 -8.3792
vt 0.6000 -0.0044 -8.3792
vt 0.7692 -0.0044 -7.4670
vt 0.8631 -0.0044 -5.9485
vt 0.8304 0.0857 0.8863
vt 0.8538 -0.2982 1.0855
vt 0.9580 -0.3293 0.3169
vt 0.9316 0.1875 0.3169
vt 0.7151 -0.6338 0.8863
vt 0.7760 -0.7839 0.3169
vt 0.7151 -0.6338 -0.2524
vt 0.8538 -0.2982 -0.4516
vt 0.8304 0.0857 -0.2524
vt 0.0651 0.6220 1.1782
vt 0.0505 0.0652 1.4796
vt 0.4233 -0.1069 1.3417
vt 0.5097 0.3761 1.0855
vt 0.3369 -0.5899 1.0855
vt 0.4587 -0.7615 0.3169
vt 0.3247 -0.6577 -0.1278
vt 0.3369 -0.5899 -0.4516
vt 0.3247 -0.6577 0.7617
vt 0.0651 0.6220 -0.5443
vt 0.5097 0.3761 -0.4516
vt 0.4233 -0.1069 -0.7078
vt 0.0505 0.0652 -0.8457
vt 0.0655 0.8171 0.3169
vt 0.5385 0.5371 0.3169
vt 0.0436 -0.4398 1.2063
vt 0.1619 -0.5315 1.1407
vt 0.1619 -0.5315 -0.5068
vt 0.0436 -0.4398 -0.5724
vt 0.3515 0.9921 1.6050
vt 0.3610 0.8364 1.6859
vt 0.4033 0.8238 1.3741
vt 0.3926 1.0334 1.3741
vt 0.3048 0.7002 1.6050
vt 0.3294 0.6394 1.3741
vt 0.3048 0.7002 1.1432
vt 0.3610 0.8364 1.0623
vt 0.3515 0.9921 1.1432
vt 0.0411 1.2097 1.7235
vt 0.0351 0.9838 1.8457
vt 0.1864 0.9140 1.7898
vt 0.2214 1.1099 1.6859
vt 0.0321 0.7578 1.7235
vt 0.1513 0.7181 1.6859
vt 0.0291 0.6788 1.3741
vt 0.1396 0.6528 1.3741
vt 0.0321 0.7578 1.0247
vt 0.1513 0.7181 1.0623
vt 0.0351 0.9838 0.9025
vt 0.1864 0.9140 0.9584
vt 0.0411 1.2097 1.0247
vt 0.2214 1.1099 1.0623
vt 0.0412 1.2888 1.3741
vt 0.2331 1.1752 1.3741
# 89 texture coords

g Herb_01
s 1
f 1/1/1 2/2/2 3/3/3 4/4/4 
f 2/2/2 5/5/5 6/6/6 3/3/3 
f 5/5/5 7/7/7 8/8/8 6/6/6 
f 7/7/7 9/9/9 10/10/10 8/8/8 
f 9/9/9 11/11/11 12/12/12 10/10/10 
f 4/4/4 3/3/3 13/13/13 14/14/14 
f 3/3/3 6/6/6 15/15/15 13/13/13 
f 6/6/6 8/8/8 16/16/16 15/15/15 
f 8/8/8 10/10/10 17/17/17 16/16/16 
f 10/10/10 12/12/12 18/18/18 17/17/17 
f 14/14/14 13/13/13 19/19/19 20/20/20 
f 13/13/13 15/15/15 21/21/21 19/19/19 
f 15/15/15 16/16/16 22/22/22 21/21/21 
f 16/16/16 17/17/17 23/23/23 22/22/22 
f 17/17/17 18/18/18 24/24/24 23/23/23 
f 20/20/20 19/19/19 25/25/25 26/26/26 
f 19/19/19 21/21/21 27/27/27 25/25/25 
f 21/21/21 22/22/22 28/28/28 27/27/27 
f 22/22/22 23/23/23 29/29/29 28/28/28 
f 23/23/23 24/24/24 30/30/30 29/29/29 
f 26/26/26 25/25/25 31/31/31 32/32/11 
f 25/25/25 27/27/27 33/33/32 31/31/31 
f 27/27/27 28/28/28 34/34/33 33/33/32 
f 28/28/28 29/29/29 35/35/34 34/34/33 
f 29/29/29 30/30/30 36/36/35 35/35/34 
f 37/37/36 38/38/37 39/39/38 40/40/39 
f 41/41/40 42/42/41 39/39/38 38/38/37 
f 43/43/42 44/44/43 39/39/38 42/42/41 
f 45/45/44 40/40/39 39/39/38 44/44/43 
f 46/46/45 47/47/46 48/48/47 49/49/48 
f 41/41/40 38/38/37 48/48/47 50/50/49 
f 37/37/36 49/49/48 48/48/47 38/38/37 
f 51/51/50 52/52/51 53/53/52 42/42/41 
f 43/43/42 42/42/41 53/53/52 
f 50/50/49 54/54/53 51/51/50 42/42/41 
f 41/41/40 50/50/49 42/42/41 
f 55/55/54 56/56/55 57/57/56 58/58/57 
f 45/45/44 44/44/43 57/57/56 56/56/55 
f 43/43/42 53/53/52 57/57/56 44/44/43 
f 55/55/54 59/59/58 60/60/59 56/56/55 
f 46/46/45 49/49/48 60/60/59 59/59/58 
f 37/37/36 40/40/39 60/60/59 49/49/48 
f 45/45/44 56/56/55 60/60/59 40/40/39 
s off
f 53/53/60 52/52/60 61/53/60 
f 53/53/61 61/53/61 62/53/61 
s 1
f 48/48/47 47/47/46 63/61/62 50/50/49 
f 64/62/63 50/50/49 63/61/62 
f 57/57/56 53/53/52 62/63/64 58/58/57 
f 65/64/65 58/58/57 62/63/64 
s off
f 54/54/66 50/50/66 66/50/66 
f 66/50/67 50/50/67 64/50/67 
s 1
f 67/37/68 68/40/69 69/39/70 70/38/71 
f 71/41/72 70/38/71 69/39/70 72/42/73 
f 73/43/74 72/42/73 69/39/70 74/44/75 
f 75/45/76 74/44/75 69/39/70 68/40/69 
f 76/46/77 77/49/78 78/48/79 79/47/80 
f 71/41/72 80/50/81 78/48/79 70/38/71 
f 67/37/68 70/38/71 78/48/79 77/49/78 
f 81/53/82 52/52/51 51/51/50 72/42/73 
f 73/43/74 81/53/82 72/42/73 
f 51/51/50 54/54/53 80/50/81 72/42/73 
f 71/41/72 72/42/73 80/50/81 
f 82/55/83 83/58/84 84/57/85 85/56/86 
f 75/45/76 85/56/86 84/57/85 74/44/75 
f 73/43/74 74/44/75 84/57/85 81/53/82 
f 82/55/83 85/56/86 86/60/87 87/59/88 
f 76/46/77 87/59/88 86/60/87 77/49/78 
f 67/37/68 77/49/78 86/60/87 68/40/69 
f 75/45/76 68/40/69 86/60/87 85/56/86 
s off
f 81/53/89 61/53/89 52/52/89 
f 81/53/90 62/53/90 61/53/90 
s 1
f 63/61/62 79/47/80 78/48/79 80/50/81 
f 64/62/63 63/61/62 80/50/81 
f 62/63/64 81/53/82 84/57/85 83/58/84 
f 65/64/65 62/63/64 83/58/84 
s off
f 54/54/91 66/50/91 80/50/91 
f 66/50/92 64/50/92 80/50/92 
s 1
f 88/65/93 89/66/94 90/67/38 91/68/95 
f 92/69/96 93/70/97 90/67/38 89/66/94 
f 94/71/98 95/72/99 90/67/38 93/70/97 
f 96/73/100 91/68/95 90/67/38 95/72/99 
f 97/74/101 98/75/102 99/76/103 100/77/104 
f 101/78/105 102/79/106 99/76/103 98/75/102 
f 92/69/96 89/66/94 99/76/103 102/79/106 
f 88/65/93 100/77/104 99/76/103 89/66/94 
f 101/78/105 103/80/107 104/81/108 102/79/106 
f 105/82/109 106/83/110 104/81/108 103/80/107 
f 94/71/98 93/70/97 104/81/108 106/83/110 
f 92/69/96 102/79/106 104/81/108 93/70/97 
f 105/82/109 107/84/111 108/85/112 106/83/110 
f 109/86/113 110/87/114 108/85/112 107/84/111 
f 96/73/100 95/72/99 108/85/112 110/87/114 
f 94/71/98 106/83/110 108/85/112 95/72/99 
f 109/86/113 111/88/115 112/89/116 110/87/114 
f 97/74/101 100/77/104 112/89/116 111/88/115 
f 88/65/93 91/68/95 112/89/116 100/77/104 
f 96/73/100 110/87/114 112/89/116 91/68/95 
f 113/65/93 114/66/94 115/67/38 116/68/117 
f 117/69/96 118/70/118 115/67/38 114/66/94 
f 119/71/98 120/72/99 115/67/38 118/70/118 
f 121/73/100 116/68/117 115/67/38 120/72/99 
f 122/74/101 123/75/102 124/76/103 125/77/104 
f 126/78/105 127/79/106 124/76/103 123/75/102 
f 117/69/96 114/66/94 124/76/103 127/79/106 
f 113/65/93 125/77/104 124/76/103 114/66/94 
f 126/78/105 128/80/107 129/81/108 127/79/106 
f 130/82/109 131/83/110 129/81/108 128/80/107 
f 119/71/98 118/70/118 129/81/108 131/83/110 
f 117/69/96 127/79/106 129/81/108 118/70/118 
f 130/82/109 132/84/111 133/85/112 131/83/110 
f 134/86/113 135/87/114 133/85/112 132/84/111 
f 121/73/100 120/72/99 133/85/112 135/87/114 
f 119/71/98 131/83/110 133/85/112 120/72/99 
f 134/86/113 136/88/115 137/89/116 135/87/114 
f 122/74/101 125/77/104 137/89/116 136/88/115 
f 113/65/93 116/68/117 137/89/116 125/77/104 
f 121/73/100 135/87/114 137/89/116 116/68/117 
f 138/65/93 139/66/94 140/67/119 141/68/95 
f 142/69/96 143/70/97 140/67/119 139/66/94 
f 144/71/98 145/72/99 140/67/119 143/70/97 
f 146/73/100 141/68/95 140/67/119 145/72/99 
f 147/74/101 148/75/102 149/76/103 150/77/104 
f 151/78/105 152/79/106 149/76/103 148/75/102 
f 142/69/96 139/66/94 149/76/103 152/79/106 
f 138/65/93 150/77/104 149/76/103 139/66/94 
f 151/78/105 153/80/120 154/81/121 152/79/106 
f 155/82/109 156/83/110 154/81/121 153/80/120 
f 144/71/98 143/70/97 154/81/121 156/83/110 
f 142/69/96 152/79/106 154/81/121 143/70/97 
f 155/82/109 157/84/111 158/85/112 156/83/110 
f 159/86/113 160/87/114 158/85/112 157/84/111 
f 146/73/100 145/72/99 158/85/112 160/87/114 
f 144/71/98 156/83/110 158/85/112 145/72/99 
f 159/86/113 161/88/58 162/89/122 160/87/114 
f 147/74/101 150/77/104 162/89/122 161/88/58 
f 138/65/93 141/68/95 162/89/122 150/77/104 
f 146/73/100 160/87/114 162/89/122 141/68/95 
f 163/37/123 164/38/124 165/39/125 166/40/126 
f 167/41/127 168/42/128 165/39/125 164/38/124 
f 169/43/129 170/44/130 165/39/125 168/42/128 
f 171/45/131 166/40/126 165/39/125 170/44/130 
f 172/46/132 173/47/133 174/48/134 175/49/135 
f 167/41/127 164/38/124 174/48/134 176/50/136 
f 163/37/123 175/49/135 174/48/134 164/38/124 
f 177/51/137 178/52/138 179/53/139 168/42/128 
f 169/43/129 168/42/128 179/53/139 
f 176/50/136 180/54/140 177/51/137 168/42/128 
f 167/41/127 176/50/136 168/42/128 
f 181/55/141 182/56/142 183/57/143 184/58/144 
f 171/45/131 170/44/130 183/57/143 182/56/142 
f 169/43/129 179/53/139 183/57/143 170/44/130 
f 181/55/141 185/59/145 186/60/146 182/56/142 
f 172/46/132 175/49/135 186/60/146 185/59/145 
f 163/37/123 166/40/126 186/60/146 175/49/135 
f 171/45/131 182/56/142 186/60/146 166/40/126 
s off
f 179/53/147 178/52/147 187/53/147 
f 179/53/148 187/53/148 188/53/148 
s 1
f 174/48/134 173/47/133 189/61/149 176/50/136 
f 190/62/150 176/50/136 189/61/149 
f 183/57/143 179/53/139 188/63/151 184/58/144 
f 191/64/152 184/58/144 188/63/151 
s off
f 180/54/153 176/50/153 192/50/153 
f 192/50/154 176/50/154 190/50/154 
s 1
f 193/37/155 194/40/156 195/39/157 196/38/158 
f 197/41/159 196/38/158 195/39/157 198/42/160 
f 199/43/161 198/42/160 195/39/157 200/44/162 
f 201/45/163 200/44/162 195/39/157 194/40/156 
f 202/46/164 203/49/165 204/48/166 205/47/167 
f 197/41/159 206/50/168 204/48/166 196/38/158 
f 193/37/155 196/38/158 204/48/166 203/49/165 
f 207/53/169 178/52/138 177/51/137 198/42/160 
f 199/43/161 207/53/169 198/42/160 
f 177/51/137 180/54/140 206/50/168 198/42/160 
f 197/41/159 198/42/160 206/50/168 
f 208/55/170 209/58/171 210/57/172 211/56/173 
f 201/45/163 211/56/173 210/57/172 200/44/162 
f 199/43/161 200/44/162 210/57/172 207/53/169 
f 208/55/170 211/56/173 212/60/174 213/59/175 
f 202/46/164 213/59/175 212/60/174 203/49/165 
f 193/37/155 203/49/165 212/60/174 194/40/156 
f 201/45/163 194/40/156 212/60/174 211/56/173 
s off
f 207/53/176 187/53/176 178/52/176 
f 207/53/177 188/53/177 187/53/177 
s 1
f 189/61/149 205/47/167 204/48/166 206/50/168 
f 190/62/150 189/61/149 206/50/168 
f 188/63/151 207/53/169 210/57/172 209/58/171 
f 191/64/152 188/63/151 209/58/171 
s off
f 180/54/178 192/50/178 206/50/178 
f 192/50/179 190/50/179 206/50/179 
s 1
f 214/37/36 215/38/37 216/39/119 217/40/39 
f 218/41/40 219/42/41 216/39/119 215/38/37 
f 220/43/42 221/44/43 216/39/119 219/42/41 
f 222/45/44 217/40/39 216/39/119 221/44/43 
f 223/46/45 224/47/46 225/48/47 226/49/48 
f 218/41/40 215/38/37 225/48/47 227/50/49 
f 214/37/36 226/49/48 225/48/47 215/38/37 
f 228/51/50 229/52/51 230/53/52 219/42/41 
f 220/43/42 219/42/41 230/53/52 
f 227/50/49 231/54/53 228/51/50 219/42/41 
f 218/41/40 227/50/49 219/42/41 
f 232/55/54 233/56/55 234/57/56 235/58/57 
f 222/45/44 221/44/43 234/57/56 233/56/55 
f 220/43/42 230/53/52 234/57/56 221/44/43 
f 232/55/54 236/59/58 237/60/59 233/56/55 
f 223/46/45 226/49/48 237/60/59 236/59/58 
f 214/37/36 217/40/39 237/60/59 226/49/48 
f 222/45/44 233/56/55 237/60/59 217/40/39 
s off
f 230/53/60 229/52/60 238/53/60 
f 230/53/61 238/53/61 239/53/61 
s 1
f 225/48/47 224/47/46 240/61/62 227/50/49 
f 241/62/63 227/50/49 240/61/62 
f 234/57/56 230/53/52 239/63/64 235/58/57 
f 242/64/65 235/58/57 239/63/64 
s off
f 231/54/66 227/50/66 243/50/66 
f 243/50/67 227/50/67 241/50/67 
s 1
f 244/37/68 245/40/69 246/39/180 247/38/71 
f 248/41/72 247/38/71 246/39/180 249/42/73 
f 250/43/74 249/42/73 246/39/180 251/44/75 
f 252/45/76 251/44/75 246/39/180 245/40/69 
f 253/46/77 254/49/78 255/48/79 256/47/80 
f 248/41/72 257/50/81 255/48/79 247/38/71 
f 244/37/68 247/38/71 255/48/79 254/49/78 
f 258/53/82 229/52/51 228/51/50 249/42/73 
f 250/43/74 258/53/82 249/42/73 
f 228/51/50 231/54/53 257/50/81 249/42/73 
f 248/41/72 249/42/73 257/50/81 
f 259/55/83 260/58/84 261/57/85 262/56/86 
f 252/45/76 262/56/86 261/57/85 251/44/75 
f 250/43/74 251/44/75 261/57/85 258/53/82 
f 259/55/83 262/56/86 263/60/181 264/59/88 
f 253/46/77 264/59/88 263/60/181 254/49/78 
f 244/37/68 254/49/78 263/60/181 245/40/69 
f 252/45/76 245/40/69 263/60/181 262/56/86 
s off
f 258/53/89 238/53/89 229/52/89 
f 258/53/90 239/53/90 238/53/90 
s 1
f 240/61/62 256/47/80 255/48/79 257/50/81 
f 241/62/63 240/61/62 257/50/81 
f 239/63/64 258/53/82 261/57/85 260/58/84 
f 242/64/65 239/63/64 260/58/84 
s off
f 231/54/91 243/50/91 257/50/91 
f 243/50/92 241/50/92 257/50/92 
s 1
f 265/65/93 266/66/94 267/67/38 268/68/117 
f 269/69/182 270/70/118 267/67/38 266/66/94 
f 271/71/183 272/72/99 267/67/38 270/70/118 
f 273/73/100 268/68/117 267/67/38 272/72/99 
f 274/74/101 275/75/102 276/76/103 277/77/104 
f 278/78/105 279/79/106 276/76/103 275/75/102 
f 269/69/182 266/66/94 276/76/103 279/79/106 
f 265/65/93 277/77/104 276/76/103 266/66/94 
f 278/78/105 280/80/107 281/81/108 279/79/106 
f 282/82/109 283/83/110 281/81/108 280/80/107 
f 271/71/183 270/70/118 281/81/108 283/83/110 
f 269/69/182 279/79/106 281/81/108 270/70/118 
f 282/82/109 284/84/111 285/85/112 283/83/110 
f 286/86/113 287/87/114 285/85/112 284/84/111 
f 273/73/100 272/72/99 285/85/112 287/87/114 
f 271/71/183 283/83/110 285/85/112 272/72/99 
f 286/86/113 288/88/115 289/89/116 287/87/114 
f 274/74/101 277/77/104 289/89/116 288/88/115 
f 265/65/93 268/68/117 289/89/116 277/77/104 
f 273/73/100 287/87/114 289/89/116 268/68/117 
f 290/65/184 291/66/185 292/67/186 293/68/187 
f 294/69/188 295/70/189 292/67/186 291/66/185 
f 296/71/190 297/72/191 292/67/186 295/70/189 
f 298/73/192 293/68/187 292/67/186 297/72/191 
f 299/74/193 300/75/194 301/76/195 302/77/196 
f 303/78/197 304/79/198 301/76/195 300/75/194 
f 294/69/188 291/66/185 301/76/195 304/79/198 
f 290/65/184 302/77/196 301/76/195 291/66/185 
f 303/78/197 305/80/199 306/81/200 304/79/198 
f 307/82/201 308/83/202 306/81/200 305/80/199 
f 296/71/190 295/70/189 306/81/200 308/83/202 
f 294/69/188 304/79/198 306/81/200 295/70/189 
f 307/82/201 309/84/203 310/85/204 308/83/202 
f 311/86/205 312/87/206 310/85/204 309/84/203 
f 298/73/192 297/72/191 310/85/204 312/87/206 
f 296/71/190 308/83/202 310/85/204 297/72/191 
f 311/86/205 313/88/207 314/89/208 312/87/206 
f 299/74/193 302/77/196 314/89/208 313/88/207 
f 290/65/184 293/68/187 314/89/208 302/77/196 
f 298/73/192 312/87/206 314/89/208 293/68/187 
f 315/65/184 316/66/185 317/67/186 318/68/187 
f 319/69/188 320/70/189 317/67/186 316/66/185 
f 321/71/190 322/72/191 317/67/186 320/70/189 
f 323/73/192 318/68/187 317/67/186 322/72/191 
f 324/74/193 325/75/194 326/76/195 327/77/196 
f 328/78/197 329/79/198 326/76/195 325/75/194 
f 319/69/188 316/66/185 326/76/195 329/79/198 
f 315/65/184 327/77/196 326/76/195 316/66/185 
f 328/78/197 330/80/209 331/81/200 329/79/198 
f 332/82/201 333/83/202 331/81/200 330/80/209 
f 321/71/190 320/70/189 331/81/200 333/83/202 
f 319/69/188 329/79/198 331/81/200 320/70/189 
f 332/82/201 334/84/203 335/85/204 333/83/202 
f 336/86/205 337/87/206 335/85/204 334/84/203 
f 323/73/192 322/72/191 335/85/204 337/87/206 
f 321/71/190 333/83/202 335/85/204 322/72/191 
f 336/86/205 338/88/210 339/89/208 337/87/206 
f 324/74/193 327/77/196 339/89/208 338/88/210 
f 315/65/184 318/68/187 339/89/208 327/77/196 
f 323/73/192 337/87/206 339/89/208 318/68/187 
f 340/37/123 341/38/124 342/39/211 343/40/212 
f 344/41/127 345/42/213 342/39/211 341/38/124 
f 346/43/129 347/44/130 342/39/211 345/42/213 
f 348/45/131 343/40/212 342/39/211 347/44/130 
f 349/46/132 350/47/133 351/48/134 352/49/135 
f 344/41/127 341/38/124 351/48/134 353/50/136 
f 340/37/123 352/49/135 351/48/134 341/38/124 
f 354/51/214 355/52/138 356/53/139 345/42/213 
f 346/43/129 345/42/213 356/53/139 
f 353/50/136 357/54/140 354/51/214 345/42/213 
f 344/41/127 353/50/136 345/42/213 
f 358/55/141 359/56/142 360/57/143 361/58/144 
f 348/45/131 347/44/130 360/57/143 359/56/142 
f 346/43/129 356/53/139 360/57/143 347/44/130 
f 358/55/141 362/59/215 363/60/216 359/56/142 
f 349/46/132 352/49/135 363/60/216 362/59/215 
f 340/37/123 343/40/212 363/60/216 352/49/135 
f 348/45/131 359/56/142 363/60/216 343/40/212 
s off
f 356/53/147 355/52/147 364/53/147 
f 356/53/148 364/53/148 365/53/148 
s 1
f 351/48/134 350/47/133 366/61/149 353/50/136 
f 367/62/150 353/50/136 366/61/149 
f 360/57/143 356/53/139 365/63/151 361/58/144 
f 368/64/152 361/58/144 365/63/151 
s off
f 357/54/153 353/50/153 369/50/153 
f 369/50/154 353/50/154 367/50/154 
s 1
f 370/37/155 371/40/217 372/39/218 373/38/158 
f 374/41/159 373/38/158 372/39/218 375/42/219 
f 376/43/161 375/42/219 372/39/218 377/44/162 
f 378/45/163 377/44/162 372/39/218 371/40/217 
f 379/46/164 380/49/165 381/48/166 382/47/167 
f 374/41/159 383/50/168 381/48/166 373/38/158 
f 370/37/155 373/38/158 381/48/166 380/49/165 
f 384/53/169 355/52/138 354/51/214 375/42/219 
f 376/43/161 384/53/169 375/42/219 
f 354/51/214 357/54/140 383/50/168 375/42/219 
f 374/41/159 375/42/219 383/50/168 
f 385/55/170 386/58/171 387/57/172 388/56/173 
f 378/45/163 388/56/173 387/57/172 377/44/162 
f 376/43/161 377/44/162 387/57/172 384/53/169 
f 385/55/170 388/56/173 389/60/220 390/59/221 
f 379/46/164 390/59/221 389/60/220 380/49/165 
f 370/37/155 380/49/165 389/60/220 371/40/217 
f 378/45/163 371/40/217 389/60/220 388/56/173 
s off
f 384/53/176 364/53/176 355/52/176 
f 384/53/177 365/53/177 364/53/177 
s 1
f 366/61/149 382/47/167 381/48/166 383/50/168 
f 367/62/150 366/61/149 383/50/168 
f 365/63/151 384/53/169 387/57/172 386/58/171 
f 368/64/152 365/63/151 386/58/171 
s off
f 357/54/178 369/50/178 383/50/178 
f 369/50/179 367/50/179 383/50/179 
s 1
f 391/37/222 392/38/223 393/39/224 394/40/225 
f 395/41/226 396/42/227 393/39/224 392/38/223 
f 397/43/228 398/44/229 393/39/224 396/42/227 
f 399/45/230 394/40/225 393/39/224 398/44/229 
f 400/46/231 401/47/232 402/48/233 403/49/234 
f 395/41/226 392/38/223 402/48/233 404/50/235 
f 391/37/222 403/49/234 402/48/233 392/38/223 
f 405/51/236 406/52/237 407/53/238 396/42/227 
f 397/43/228 396/42/227 407/53/238 
f 404/50/235 408/54/239 405/51/236 396/42/227 
f 395/41/226 404/50/235 396/42/227 
f 409/55/240 410/56/241 411/57/242 412/58/243 
f 399/45/230 398/44/229 411/57/242 410/56/241 
f 397/43/228 407/53/238 411/57/242 398/44/229 
f 409/55/240 413/59/244 414/60/245 410/56/241 
f 400/46/231 403/49/234 414/60/245 413/59/244 
f 391/37/222 394/40/225 414/60/245 403/49/234 
f 399/45/230 410/56/241 414/60/245 394/40/225 
s off
f 407/53/246 406/52/246 415/53/246 
f 407/53/247 415/53/247 416/53/247 
s 1
f 402/48/233 401/47/232 417/61/248 404/50/235 
f 418/62/249 404/50/235 417/61/248 
f 411/57/242 407/53/238 416/63/250 412/58/243 
f 419/64/251 412/58/243 416/63/250 
s off
f 408/54/252 404/50/252 420/50/252 
f 420/50/253 404/50/253 418/50/253 
s 1
f 421/37/254 422/40/255 423/39/256 424/38/257 
f 425/41/258 424/38/257 423/39/256 426/42/259 
f 427/43/260 426/42/259 423/39/256 428/44/261 
f 429/45/262 428/44/261 423/39/256 422/40/255 
f 430/46/263 431/49/264 432/48/265 433/47/266 
f 425/41/258 434/50/267 432/48/265 424/38/257 
f 421/37/254 424/38/257 432/48/265 431/49/264 
f 435/53/268 406/52/237 405/51/236 426/42/259 
f 427/43/260 435/53/268 426/42/259 
f 405/51/236 408/54/239 434/50/267 426/42/259 
f 425/41/258 426/42/259 434/50/267 
f 436/55/269 437/58/270 438/57/271 439/56/272 
f 429/45/262 439/56/272 438/57/271 428/44/261 
f 427/43/260 428/44/261 438/57/271 435/53/268 
f 436/55/269 439/56/272 440/60/273 441/59/274 
f 430/46/263 441/59/274 440/60/273 431/49/264 
f 421/37/254 431/49/264 440/60/273 422/40/255 
f 429/45/262 422/40/255 440/60/273 439/56/272 
s off
f 435/53/275 415/53/275 406/52/275 
f 435/53/276 416/53/276 415/53/276 
s 1
f 417/61/248 433/47/266 432/48/265 434/50/267 
f 418/62/249 417/61/248 434/50/267 
f 416/63/250 435/53/268 438/57/271 437/58/270 
f 419/64/251 416/63/250 437/58/270 
s off
f 408/54/277 420/50/277 434/50/277 
f 420/50/278 418/50/278 434/50/278 
# 325 polygons - 80 triangles

