%YAML 1.1
%TAG !u! tag:unity3d.com,2011:
--- !u!1 &100000
GameObject:
  m_ObjectHideFlags: 0
  m_PrefabParentObject: {fileID: 0}
  m_PrefabInternal: {fileID: 100100000}
  serializedVersion: 5
  m_Component:
  - component: {fileID: 400000}
  - component: {fileID: 11400000}
  m_Layer: 8
  m_Name: White Star
  m_TagString: Untagged
  m_Icon: {fileID: 0}
  m_NavMeshLayer: 0
  m_StaticEditorFlags: 0
  m_IsActive: 1
--- !u!4 &400000
Transform:
  m_ObjectHideFlags: 1
  m_PrefabParentObject: {fileID: 0}
  m_PrefabInternal: {fileID: 100100000}
  m_GameObject: {fileID: 100000}
  m_LocalRotation: {x: 0, y: 0, z: 0, w: 1}
  m_LocalPosition: {x: 0, y: 0, z: 0}
  m_LocalScale: {x: 1, y: 1, z: 1}
  m_Children: []
  m_Father: {fileID: 0}
  m_RootOrder: 0
  m_LocalEulerAnglesHint: {x: 0, y: 0, z: 0}
--- !u!114 &11400000
MonoBehaviour:
  m_ObjectHideFlags: 1
  m_PrefabParentObject: {fileID: 0}
  m_PrefabInternal: {fileID: 100100000}
  m_GameObject: {fileID: 100000}
  m_Enabled: 1
  m_EditorHideFlags: 0
  m_Script: {fileID: 11500000, guid: 15b6679336c128b459f37ee207e8c880, type: 3}
  m_Name: 
  m_EditorClassIdentifier: 
  _Atlas: {fileID: 11400000, guid: cb9d833d9a9304870b9f6bad04ea93e3, type: 2}
  FlareBatches:
  - {fileID: 0}
  EditingAtlas: 0
  isVisible: 1
  Elements:
  - Editing: 0
    Visible: 1
    elementTextureID: 9
    SpriteName: Glow_Chroma
    flare: {fileID: 11400000}
    flareAtlas: {fileID: 11400000, guid: cb9d833d9a9304870b9f6bad04ea93e3, type: 2}
    Brightness: 1
    Scale: 0.34
    ScaleRandom: 0
    ScaleFinal: 0.9461912
    RandomColorAmount: {x: 0, y: 0, z: 0, w: 0}
    position: -1
    useRangeOffset: 0
    SubElementPositionRange_Min: -1
    SubElementPositionRange_Max: 1
    SubElementAngleRange_Min: -180
    SubElementAngleRange_Max: 180
    OffsetPosition: {x: -0.919719, y: -0.17320508, z: 0}
    Anamorphic: {x: 0, y: 0, z: 0}
    OffsetPostion: {x: 0, y: 0, z: 0}
    angle: 0
    FinalAngle: 0
    useRandomAngle: 0
    useStarRotation: 0
    AngleRandom_Min: 0
    AngleRandom_Max: 0
    OrientToSource: 0
    rotateToFlare: 0
    rotationSpeed: 0
    rotationOverTime: 0
    useColorRange: 0
    ElementFinalColor: {r: 0.8507463, g: 0.906438, b: 0.8627451, a: 0.34405228}
    ElementTint: {r: 1, g: 1, b: 0.8627451, a: 0.36862746}
    SubElementColor_Start: {r: 1, g: 1, b: 1, a: 1}
    SubElementColor_End: {r: 1, g: 1, b: 1, a: 1}
    useScaleCurve: 0
    ScaleCurve:
      serializedVersion: 2
      m_Curve:
      - serializedVersion: 2
        time: 0
        value: 0.1
        inSlope: 0
        outSlope: 0
        tangentMode: 0
      - serializedVersion: 2
        time: 0.5
        value: 1
        inSlope: 0
        outSlope: 0
        tangentMode: 0
      - serializedVersion: 2
        time: 1
        value: 0.1
        inSlope: 0
        outSlope: 0
        tangentMode: 0
      m_PreInfinity: 2
      m_PostInfinity: 2
      m_RotationOrder: 4
    OverrideDynamicEdgeBoost: 0
    DynamicEdgeBoostOverride: 1
    OverrideDynamicCenterBoost: 0
    DynamicCenterBoostOverride: 1
    OverrideDynamicEdgeBrightness: 0
    DynamicEdgeBrightnessOverride: 0.4
    OverrideDynamicCenterBrightness: 0
    DynamicCenterBrightnessOverride: 0.4
    subElements: []
    size: {x: 1, y: 1}
    EditDynamicTriggering: 0
    EditOcclusion: 0
    ElementSetting: 0
    OffsetSetting: 0
    ColorSetting: 0
    ScaleSetting: 0
    RotationSetting: 0
    OverrideSetting: 0
    colorTexture: {fileID: 0}
    colorTextureDirty: 1
    type: 0
  - Editing: 0
    Visible: 1
    elementTextureID: 39
    SpriteName: Steak_SuperSoftEnds
    flare: {fileID: 11400000}
    flareAtlas: {fileID: 11400000, guid: cb9d833d9a9304870b9f6bad04ea93e3, type: 2}
    Brightness: 1
    Scale: 0.74
    ScaleRandom: 0.689
    ScaleFinal: 0.9461912
    RandomColorAmount: {x: 0.163, y: 0, z: 0.193, w: 0.163}
    position: -1
    useRangeOffset: 0
    SubElementPositionRange_Min: -1
    SubElementPositionRange_Max: 1
    SubElementAngleRange_Min: -40.344833
    SubElementAngleRange_Max: 180
    OffsetPosition: {x: -0.17209692, y: 0.05852747, z: 0}
    Anamorphic: {x: 0, y: 0, z: 0}
    OffsetPostion: {x: 0, y: 0, z: 0}
    angle: 46.51
    FinalAngle: 40.2694
    useRandomAngle: 1
    useStarRotation: 1
    AngleRandom_Min: 0
    AngleRandom_Max: 0
    OrientToSource: 0
    rotateToFlare: 0
    rotationSpeed: 5.71
    rotationOverTime: 0
    useColorRange: 0
    ElementFinalColor: {r: 1, g: 1, b: 1, a: 0.30980393}
    ElementTint: {r: 1, g: 1, b: 1, a: 0.15294118}
    SubElementColor_Start: {r: 1, g: 1, b: 1, a: 1}
    SubElementColor_End: {r: 1, g: 1, b: 1, a: 1}
    useScaleCurve: 0
    ScaleCurve:
      serializedVersion: 2
      m_Curve:
      - serializedVersion: 2
        time: 0
        value: 0.1
        inSlope: 0
        outSlope: 0
        tangentMode: 0
      - serializedVersion: 2
        time: 0.5
        value: 1
        inSlope: 0
        outSlope: 0
        tangentMode: 0
      - serializedVersion: 2
        time: 1
        value: 0.1
        inSlope: 0
        outSlope: 0
        tangentMode: 0
      m_PreInfinity: 2
      m_PostInfinity: 2
      m_RotationOrder: 4
    OverrideDynamicEdgeBoost: 0
    DynamicEdgeBoostOverride: 1
    OverrideDynamicCenterBoost: 0
    DynamicCenterBoostOverride: 1
    OverrideDynamicEdgeBrightness: 0
    DynamicEdgeBrightnessOverride: 0.4
    OverrideDynamicCenterBrightness: 0
    DynamicCenterBrightnessOverride: 0.4
    subElements:
    - color: {r: 0.85212547, g: 1, b: 1, a: 0.19528356}
      colorFinal: {r: 0.72494256, g: 0.906438, b: 1, a: 0.18226466}
      position: 0.42200375
      offset: {x: -0.919719, y: -0.17320508, z: 0}
      angle: 65.2281
      scale: 1.1555164
      random: 0.7110019
      random2: 0.17817652
      RandomScaleSeed: 0.22571313
      RandomColorSeedR: -0.9072056
      RandomColorSeedG: 0.8828008
      RandomColorSeedB: 0.48755595
      RandomColorSeedA: 0.25976917
    - color: {r: 0.86033857, g: 1, b: 0.8282903, a: 0.052394025}
      colorFinal: {r: 0.73192984, g: 0.906438, b: 0.8282903, a: 0.04890109}
      position: 0.16586578
      offset: {x: -0.919719, y: -0.17320508, z: 0}
      angle: 72.470116
      scale: 1.1264731
      random: 0.5829329
      random2: 0.08682299
      RandomScaleSeed: 0.18356025
      RandomColorSeedR: -0.85681844
      RandomColorSeedG: 0.7714033
      RandomColorSeedB: -0.8896878
      RandomColorSeedA: -0.6168537
    - color: {r: 1, g: 1, b: 0.9119584, a: 0.27352345}
      colorFinal: {r: 0.8507463, g: 0.906438, b: 0.9119584, a: 0.25528854}
      position: 0.87366843
      offset: {x: -0.919719, y: -0.17320508, z: 0}
      angle: 158.30916
      scale: 0.7552754
      random: 0.9368342
      random2: 0.5582631
      RandomScaleSeed: -0.355188
      RandomColorSeedR: 0.40892956
      RandomColorSeedG: 0.72790885
      RandomColorSeedB: -0.45617402
      RandomColorSeedA: 0.7397685
    - color: {r: 1, g: 1, b: 0.9796948, a: 0.021408781}
      colorFinal: {r: 0.8507463, g: 0.906438, b: 0.9796948, a: 0.01998153}
      position: 0.77892566
      offset: {x: -0.919719, y: -0.17320508, z: 0}
      angle: 104.69725
      scale: 0.9690491
      random: 0.8894628
      random2: 0.03116548
      RandomScaleSeed: -0.044921517
      RandomColorSeedR: 0.2525513
      RandomColorSeedG: 0.023594499
      RandomColorSeedB: -0.105208516
      RandomColorSeedA: -0.80694723
    - color: {r: 0.850394, g: 1, b: 0.9113231, a: 0.039476026}
      colorFinal: {r: 0.72346956, g: 0.906438, b: 0.9113231, a: 0.03684429}
      position: -0.2094742
      offset: {x: -0.919719, y: -0.17320508, z: 0}
      angle: 231.49179
      scale: 0.7419293
      random: 0.3952629
      random2: 0.7958671
      RandomScaleSeed: -0.37455833
      RandomColorSeedR: -0.9178281
      RandomColorSeedG: -0.366562
      RandomColorSeedB: -0.4594661
      RandomColorSeedA: -0.69610524
    - color: {r: 1, g: 1, b: 1, a: 0.28016543}
      colorFinal: {r: 0.8507463, g: 0.906438, b: 1, a: 0.26148775}
      position: -0.11232126
      offset: {x: -0.919719, y: -0.17320508, z: 0}
      angle: 196.92058
      scale: 1.4673345
      random: 0.44383937
      random2: 0.4051103
      RandomScaleSeed: 0.6782794
      RandomColorSeedR: 0.8378792
      RandomColorSeedG: 0.0664376
      RandomColorSeedB: 0.9511514
      RandomColorSeedA: 0.78051686
    - color: {r: 1, g: 1, b: 1, a: 0.045266304}
      colorFinal: {r: 0.8507463, g: 0.906438, b: 1, a: 0.04224855}
      position: -0.09989607
      offset: {x: -0.919719, y: -0.17320508, z: 0}
      angle: 230.78384
      scale: 1.3668106
      random: 0.45005196
      random2: 0.50437814
      RandomScaleSeed: 0.53238106
      RandomColorSeedR: 0.6152811
      RandomColorSeedG: 0.74137664
      RandomColorSeedB: 0.22615182
      RandomColorSeedA: -0.66058207
    - color: {r: 0.87662053, g: 1, b: 1, a: 0.13346936}
      colorFinal: {r: 0.74578166, g: 0.906438, b: 1, a: 0.1245714}
      position: -0.59900093
      offset: {x: -0.919719, y: -0.17320508, z: 0}
      angle: 220.73723
      scale: 1.5798429
      random: 0.20049953
      random2: 0.28922945
      RandomScaleSeed: 0.8415718
      RandomColorSeedR: -0.75692916
      RandomColorSeedG: 0.8000295
      RandomColorSeedB: 0.82709384
      RandomColorSeedA: -0.11945903
    - color: {r: 0.98239, g: 1, b: 0.81066257, a: 0.023013636}
      colorFinal: {r: 0.83576465, g: 0.906438, b: 0.81066257, a: 0.021479394}
      position: 0.6629429
      offset: {x: -0.919719, y: -0.17320508, z: 0}
      angle: 311.46527
      scale: 0.9939152
      random: 0.83147144
      random2: 0.7956773
      RandomScaleSeed: -0.008831382
      RandomColorSeedR: -0.108036876
      RandomColorSeedG: 0.64480186
      RandomColorSeedB: -0.98102283
      RandomColorSeedA: -0.7971015
    size: {x: 1.5, y: 0.4}
    EditDynamicTriggering: 0
    EditOcclusion: 0
    ElementSetting: 1
    OffsetSetting: 0
    ColorSetting: 0
    ScaleSetting: 1
    RotationSetting: 1
    OverrideSetting: 0
    colorTexture: {fileID: 0}
    colorTextureDirty: 1
    type: 1
  - Editing: 1
    Visible: 1
    elementTextureID: 31
    SpriteName: Shimmer_Long_Chroma_02
    flare: {fileID: 11400000}
    flareAtlas: {fileID: 11400000, guid: cb9d833d9a9304870b9f6bad04ea93e3, type: 2}
    Brightness: 1
    Scale: 0.24
    ScaleRandom: 1
    ScaleFinal: 0.9461912
    RandomColorAmount: {x: 0, y: 0, z: 0, w: 0}
    position: -1
    useRangeOffset: 0
    SubElementPositionRange_Min: -1
    SubElementPositionRange_Max: 1
    SubElementAngleRange_Min: -180
    SubElementAngleRange_Max: 180
    OffsetPosition: {x: -0.17209688, y: 0.05852747, z: 0}
    Anamorphic: {x: 0, y: 0, z: 0}
    OffsetPostion: {x: 0, y: 0, z: 0}
    angle: 0.98
    FinalAngle: 0.98
    useRandomAngle: 0
    useStarRotation: 1
    AngleRandom_Min: 0
    AngleRandom_Max: 0
    OrientToSource: 0
    rotateToFlare: 0
    rotationSpeed: 0
    rotationOverTime: 0
    useColorRange: 0
    ElementFinalColor: {r: 1, g: 1, b: 1, a: 0.039215688}
    ElementTint: {r: 1, g: 1, b: 1, a: 0.111}
    SubElementColor_Start: {r: 1, g: 1, b: 1, a: 1}
    SubElementColor_End: {r: 1, g: 1, b: 1, a: 1}
    useScaleCurve: 0
    ScaleCurve:
      serializedVersion: 2
      m_Curve:
      - serializedVersion: 2
        time: 0
        value: 0.1
        inSlope: 0
        outSlope: 0
        tangentMode: 0
      - serializedVersion: 2
        time: 0.5
        value: 1
        inSlope: 0
        outSlope: 0
        tangentMode: 0
      - serializedVersion: 2
        time: 1
        value: 0.1
        inSlope: 0
        outSlope: 0
        tangentMode: 0
      m_PreInfinity: 2
      m_PostInfinity: 2
      m_RotationOrder: 4
    OverrideDynamicEdgeBoost: 0
    DynamicEdgeBoostOverride: 1
    OverrideDynamicCenterBoost: 0
    DynamicCenterBoostOverride: 1
    OverrideDynamicEdgeBrightness: 0
    DynamicEdgeBrightnessOverride: 0.4
    OverrideDynamicCenterBrightness: 0
    DynamicCenterBrightnessOverride: 0.4
    subElements:
    - color: {r: 1, g: 1, b: 1, a: 0.111}
      colorFinal: {r: 0.8507463, g: 0.906438, b: 1, a: 0.1036}
      position: -0.96164465
      offset: {x: -0.919719, y: -0.17320508, z: 0}
      angle: 0
      scale: 1.5
      random: 0.019177675
      random2: 0.49712223
      RandomScaleSeed: 0.5
      RandomColorSeedR: -0.4549514
      RandomColorSeedG: -0.39442623
      RandomColorSeedB: -0.40067923
      RandomColorSeedA: 0.5
    - color: {r: 1, g: 1, b: 1, a: 0.111}
      colorFinal: {r: 0.8507463, g: 0.906438, b: 1, a: 0.1036}
      position: 0.832721
      offset: {x: -0.919719, y: -0.17320508, z: 0}
      angle: 36
      scale: 1.5
      random: 0.9163605
      random2: 0.8873459
      RandomScaleSeed: 0.5
      RandomColorSeedR: 0.26851198
      RandomColorSeedG: -0.94235444
      RandomColorSeedB: 0.93174934
      RandomColorSeedA: 0.5
    - color: {r: 1, g: 1, b: 1, a: 0.111}
      colorFinal: {r: 0.8507463, g: 0.906438, b: 1, a: 0.1036}
      position: 0.64157677
      offset: {x: -0.919719, y: -0.17320508, z: 0}
      angle: 72
      scale: 1.5
      random: 0.8207884
      random2: 0.08973098
      RandomScaleSeed: 0.5
      RandomColorSeedR: 0.8824978
      RandomColorSeedG: 0.64978075
      RandomColorSeedB: 0.16749084
      RandomColorSeedA: 0.5
    - color: {r: 1, g: 1, b: 1, a: 0.111}
      colorFinal: {r: 0.8507463, g: 0.906438, b: 1, a: 0.1036}
      position: 0.23972881
      offset: {x: -0.919719, y: -0.17320508, z: 0}
      angle: 108
      scale: 1.5
      random: 0.6198644
      random2: 0.79824793
      RandomScaleSeed: 0.5
      RandomColorSeedR: 0.30449125
      RandomColorSeedG: -0.5685315
      RandomColorSeedB: 0.641732
      RandomColorSeedA: 0.5
    - color: {r: 1, g: 1, b: 1, a: 0.111}
      colorFinal: {r: 0.8507463, g: 0.906438, b: 1, a: 0.1036}
      position: -0.4249705
      offset: {x: -0.919719, y: -0.17320508, z: 0}
      angle: 144
      scale: 1.5
      random: 0.28751475
      random2: 0.2138499
      RandomScaleSeed: 0.5
      RandomColorSeedR: 0.62269044
      RandomColorSeedG: -0.9114182
      RandomColorSeedB: 0.81057787
      RandomColorSeedA: 0.5
    size: {x: 1, y: 1}
    EditDynamicTriggering: 0
    EditOcclusion: 0
    ElementSetting: 0
    OffsetSetting: 0
    ColorSetting: 0
    ScaleSetting: 0
    RotationSetting: 0
    OverrideSetting: 0
    colorTexture: {fileID: 0}
    colorTextureDirty: 1
    type: 1
  - Editing: 0
    Visible: 1
    elementTextureID: 12
    SpriteName: Glow_NoneUniform_02
    flare: {fileID: 11400000}
    flareAtlas: {fileID: 11400000, guid: cb9d833d9a9304870b9f6bad04ea93e3, type: 2}
    Brightness: 1
    Scale: 1.03
    ScaleRandom: 0
    ScaleFinal: 0.9461912
    RandomColorAmount: {x: 0, y: 0, z: 0, w: 0}
    position: -1
    useRangeOffset: 0
    SubElementPositionRange_Min: -1
    SubElementPositionRange_Max: 1
    SubElementAngleRange_Min: -180
    SubElementAngleRange_Max: 180
    OffsetPosition: {x: -0.919719, y: -0.17320508, z: 0}
    Anamorphic: {x: 0, y: 0, z: 0}
    OffsetPostion: {x: 0, y: 0, z: 0}
    angle: 0
    FinalAngle: 0
    useRandomAngle: 0
    useStarRotation: 0
    AngleRandom_Min: 0
    AngleRandom_Max: 0
    OrientToSource: 0
    rotateToFlare: 0
    rotationSpeed: 0
    rotationOverTime: 0
    useColorRange: 0
    ElementFinalColor: {r: 0.8507463, g: 0.906438, b: 1, a: 0.22306666}
    ElementTint: {r: 1, g: 1, b: 1, a: 0.239}
    SubElementColor_Start: {r: 1, g: 1, b: 1, a: 1}
    SubElementColor_End: {r: 1, g: 1, b: 1, a: 1}
    useScaleCurve: 0
    ScaleCurve:
      serializedVersion: 2
      m_Curve:
      - serializedVersion: 2
        time: 0
        value: 0.1
        inSlope: 0
        outSlope: 0
        tangentMode: 0
      - serializedVersion: 2
        time: 0.5
        value: 1
        inSlope: 0
        outSlope: 0
        tangentMode: 0
      - serializedVersion: 2
        time: 1
        value: 0.1
        inSlope: 0
        outSlope: 0
        tangentMode: 0
      m_PreInfinity: 2
      m_PostInfinity: 2
      m_RotationOrder: 4
    OverrideDynamicEdgeBoost: 0
    DynamicEdgeBoostOverride: 1
    OverrideDynamicCenterBoost: 0
    DynamicCenterBoostOverride: 1
    OverrideDynamicEdgeBrightness: 0
    DynamicEdgeBrightnessOverride: 0.4
    OverrideDynamicCenterBrightness: 0
    DynamicCenterBrightnessOverride: 0.4
    subElements: []
    size: {x: 1, y: 1}
    EditDynamicTriggering: 0
    EditOcclusion: 0
    ElementSetting: 0
    OffsetSetting: 0
    ColorSetting: 0
    ScaleSetting: 0
    RotationSetting: 0
    OverrideSetting: 0
    colorTexture: {fileID: 0}
    colorTextureDirty: 1
    type: 0
  - Editing: 0
    Visible: 1
    elementTextureID: 39
    SpriteName: Steak_SuperSoftEnds
    flare: {fileID: 11400000}
    flareAtlas: {fileID: 11400000, guid: cb9d833d9a9304870b9f6bad04ea93e3, type: 2}
    Brightness: 1
    Scale: 1.71
    ScaleRandom: 0
    ScaleFinal: 0.9461912
    RandomColorAmount: {x: 0, y: 0, z: 0, w: 0}
    position: -1
    useRangeOffset: 0
    SubElementPositionRange_Min: -1
    SubElementPositionRange_Max: 1
    SubElementAngleRange_Min: -40.344833
    SubElementAngleRange_Max: 180
    OffsetPosition: {x: -0.17209692, y: 0.05852747, z: 0}
    Anamorphic: {x: 0, y: 0, z: 0}
    OffsetPostion: {x: 0, y: 0, z: 0}
    angle: 46.51
    FinalAngle: 84.620255
    useRandomAngle: 1
    useStarRotation: 1
    AngleRandom_Min: 0
    AngleRandom_Max: 0
    OrientToSource: 0
    rotateToFlare: 0
    rotationSpeed: -34.87
    rotationOverTime: 0
    useColorRange: 0
    ElementFinalColor: {r: 1, g: 1, b: 1, a: 0.30980393}
    ElementTint: {r: 1, g: 1, b: 1, a: 0.15294118}
    SubElementColor_Start: {r: 1, g: 1, b: 1, a: 1}
    SubElementColor_End: {r: 1, g: 1, b: 1, a: 1}
    useScaleCurve: 0
    ScaleCurve:
      serializedVersion: 2
      m_Curve:
      - serializedVersion: 2
        time: 0
        value: 0.1
        inSlope: 0
        outSlope: 0
        tangentMode: 0
      - serializedVersion: 2
        time: 0.5
        value: 1
        inSlope: 0
        outSlope: 0
        tangentMode: 0
      - serializedVersion: 2
        time: 1
        value: 0.1
        inSlope: 0
        outSlope: 0
        tangentMode: 0
      m_PreInfinity: 2
      m_PostInfinity: 2
      m_RotationOrder: 4
    OverrideDynamicEdgeBoost: 0
    DynamicEdgeBoostOverride: 1
    OverrideDynamicCenterBoost: 0
    DynamicCenterBoostOverride: 1
    OverrideDynamicEdgeBrightness: 0
    DynamicEdgeBrightnessOverride: 0.4
    OverrideDynamicCenterBrightness: 0
    DynamicCenterBrightnessOverride: 0.4
    subElements:
    - color: {r: 1, g: 1, b: 1, a: 0.15294118}
      colorFinal: {r: 0.8507463, g: 0.906438, b: 1, a: 0.1427451}
      position: 0.75350714
      offset: {x: -0.919719, y: -0.17320508, z: 0}
      angle: 76.63612
      scale: 1
      random: 0.87675357
      random2: 0.25986356
      RandomScaleSeed: -0.6673124
      RandomColorSeedR: -0.27745068
      RandomColorSeedG: 0.3758721
      RandomColorSeedB: -0.8780072
      RandomColorSeedA: 0.793026
    - color: {r: 1, g: 1, b: 1, a: 0.15294118}
      colorFinal: {r: 0.8507463, g: 0.906438, b: 1, a: 0.1427451}
      position: 0.12988651
      offset: {x: -0.919719, y: -0.17320508, z: 0}
      angle: 219.79083
      scale: 1
      random: 0.56494325
      random2: 0.9626998
      RandomScaleSeed: -0.8469479
      RandomColorSeedR: 0.5390804
      RandomColorSeedG: -0.9078851
      RandomColorSeedB: -0.5227723
      RandomColorSeedA: 0.7779186
    - color: {r: 1, g: 1, b: 1, a: 0.15294118}
      colorFinal: {r: 0.8507463, g: 0.906438, b: 1, a: 0.1427451}
      position: 0.7487588
      offset: {x: -0.919719, y: -0.17320508, z: 0}
      angle: 175.75711
      scale: 1
      random: 0.8743794
      random2: 0.3251744
      RandomScaleSeed: 0.94414496
      RandomColorSeedR: -0.58908343
      RandomColorSeedG: 0.92612743
      RandomColorSeedB: -0.46805656
      RandomColorSeedA: -0.9824836
    - color: {r: 1, g: 1, b: 1, a: 0.15294118}
      colorFinal: {r: 0.8507463, g: 0.906438, b: 1, a: 0.1427451}
      position: -0.3110515
      offset: {x: -0.919719, y: -0.17320508, z: 0}
      angle: 303.895
      scale: 1
      random: 0.34447426
      random2: 0.92048264
      RandomScaleSeed: 0.03602636
      RandomColorSeedR: 0.41845843
      RandomColorSeedG: -0.60754466
      RandomColorSeedB: 0.71492696
      RandomColorSeedA: -0.036807656
    size: {x: 1.5, y: 0.2}
    EditDynamicTriggering: 0
    EditOcclusion: 0
    ElementSetting: 1
    OffsetSetting: 0
    ColorSetting: 1
    ScaleSetting: 1
    RotationSetting: 1
    OverrideSetting: 0
    colorTexture: {fileID: 0}
    colorTextureDirty: 1
    type: 1
  - Editing: 1
    Visible: 1
    elementTextureID: 35
    SpriteName: Spectrum_Thick_wide
    flare: {fileID: 11400000}
    flareAtlas: {fileID: 11400000, guid: cb9d833d9a9304870b9f6bad04ea93e3, type: 2}
    Brightness: 1
    Scale: 0.9
    ScaleRandom: 0.823
    ScaleFinal: 0.8034683
    RandomColorAmount: {x: 0, y: 0, z: 0, w: 0}
    position: 0.787
    useRangeOffset: 0
    SubElementPositionRange_Min: 1
    SubElementPositionRange_Max: 1
    SubElementAngleRange_Min: -180
    SubElementAngleRange_Max: 180
    OffsetPosition: {x: 0.72381884, y: 0.1363124, z: 0}
    Anamorphic: {x: 0, y: 0, z: 0}
    OffsetPostion: {x: 0, y: 0, z: 0}
    angle: 180
    FinalAngle: 10.665268
    useRandomAngle: 0
    useStarRotation: 0
    AngleRandom_Min: 0
    AngleRandom_Max: 0
    OrientToSource: 0
    rotateToFlare: 1
    rotationSpeed: 0
    rotationOverTime: 0
    useColorRange: 0
    ElementFinalColor: {r: 0.8507463, g: 0.906438, b: 1, a: 0.066475414}
    ElementTint: {r: 1, g: 1, b: 1, a: 0.085}
    SubElementColor_Start: {r: 1, g: 1, b: 1, a: 1}
    SubElementColor_End: {r: 1, g: 1, b: 1, a: 1}
    useScaleCurve: 0
    ScaleCurve:
      serializedVersion: 2
      m_Curve:
      - serializedVersion: 2
        time: 0
        value: 0.1
        inSlope: 0
        outSlope: 0
        tangentMode: 0
      - serializedVersion: 2
        time: 0.5
        value: 1
        inSlope: 0
        outSlope: 0
        tangentMode: 0
      - serializedVersion: 2
        time: 1
        value: 0.1
        inSlope: 0
        outSlope: 0
        tangentMode: 0
      m_PreInfinity: 2
      m_PostInfinity: 2
      m_RotationOrder: 4
    OverrideDynamicEdgeBoost: 0
    DynamicEdgeBoostOverride: 1
    OverrideDynamicCenterBoost: 1
    DynamicCenterBoostOverride: -1.01
    OverrideDynamicEdgeBrightness: 0
    DynamicEdgeBrightnessOverride: 0.4
    OverrideDynamicCenterBrightness: 1
    DynamicCenterBrightnessOverride: -0.1
    subElements:
    - color: {r: 1, g: 1, b: 1, a: 1}
      colorFinal: {r: 1, g: 1, b: 1, a: 1}
      position: 1
      offset: {x: 1.9200829, y: 0.1816839, z: 0}
      angle: 0
      scale: 1.4115
      random: 0.07440817
      random2: 0.042111516
      RandomScaleSeed: 0.5
      RandomColorSeedR: 0.95313
      RandomColorSeedG: 0.92629886
      RandomColorSeedB: -0.6976335
      RandomColorSeedA: 0.5
    - color: {r: 1, g: 1, b: 1, a: 1}
      colorFinal: {r: 1, g: 1, b: 1, a: 1}
      position: 1
      offset: {x: 1.9200829, y: 0.1816839, z: 0}
      angle: 0
      scale: 1.4115
      random: 0.94060314
      random2: 0.95055234
      RandomScaleSeed: 0.5
      RandomColorSeedR: 0.61862016
      RandomColorSeedG: -0.79279065
      RandomColorSeedB: 0.09548342
      RandomColorSeedA: 0.5
    - color: {r: 1, g: 1, b: 1, a: 1}
      colorFinal: {r: 1, g: 1, b: 1, a: 1}
      position: 1
      offset: {x: 1.9200829, y: 0.1816839, z: 0}
      angle: 0
      scale: 1.4115
      random: 0.109802246
      random2: 0.8209641
      RandomScaleSeed: 0.5
      RandomColorSeedR: -0.36702287
      RandomColorSeedG: -0.7173095
      RandomColorSeedB: 0.49853942
      RandomColorSeedA: 0.5
    - color: {r: 1, g: 1, b: 1, a: 1}
      colorFinal: {r: 1, g: 1, b: 1, a: 1}
      position: 1
      offset: {x: 1.9200829, y: 0.1816839, z: 0}
      angle: 0
      scale: 1.4115
      random: 0.3476383
      random2: 0.9247813
      RandomScaleSeed: 0.5
      RandomColorSeedR: 0.8157654
      RandomColorSeedG: -0.56564164
      RandomColorSeedB: -0.7399719
      RandomColorSeedA: 0.5
    - color: {r: 1, g: 1, b: 1, a: 1}
      colorFinal: {r: 1, g: 1, b: 1, a: 1}
      position: 1
      offset: {x: 1.9200829, y: 0.1816839, z: 0}
      angle: 0
      scale: 1.4115
      random: 0.9160143
      random2: 0.9937458
      RandomScaleSeed: 0.5
      RandomColorSeedR: 0.40896723
      RandomColorSeedG: -0.15932238
      RandomColorSeedB: -0.42402184
      RandomColorSeedA: 0.5
    size: {x: 0.52, y: 1.44}
    EditDynamicTriggering: 0
    EditOcclusion: 0
    ElementSetting: 0
    OffsetSetting: 1
    ColorSetting: 0
    ScaleSetting: 0
    RotationSetting: 0
    OverrideSetting: 1
    colorTexture: {fileID: 0}
    colorTextureDirty: 1
    type: 0
  - Editing: 1
    Visible: 1
    elementTextureID: 35
    SpriteName: Spectrum_Thick_wide
    flare: {fileID: 11400000}
    flareAtlas: {fileID: 11400000, guid: cb9d833d9a9304870b9f6bad04ea93e3, type: 2}
    Brightness: 1
    Scale: 1.75
    ScaleRandom: 0.823
    ScaleFinal: 0.81118304
    RandomColorAmount: {x: 0, y: 0, z: 0, w: 0}
    position: 1.629
    useRangeOffset: 0
    SubElementPositionRange_Min: 1
    SubElementPositionRange_Max: 1
    SubElementAngleRange_Min: -180
    SubElementAngleRange_Max: 180
    OffsetPosition: {x: 1.4982222, y: 0.28215107, z: 0}
    Anamorphic: {x: 0, y: 0, z: 0}
    OffsetPostion: {x: 0, y: 0, z: 0}
    angle: 180
    FinalAngle: 10.665268
    useRandomAngle: 0
    useStarRotation: 0
    AngleRandom_Min: 0
    AngleRandom_Max: 0
    OrientToSource: 0
    rotateToFlare: 1
    rotationSpeed: 0
    rotationOverTime: 0
    useColorRange: 0
    ElementFinalColor: {r: 0.8507463, g: 0.906438, b: 1, a: 0.069047}
    ElementTint: {r: 1, g: 1, b: 1, a: 0.085}
    SubElementColor_Start: {r: 1, g: 1, b: 1, a: 1}
    SubElementColor_End: {r: 1, g: 1, b: 1, a: 1}
    useScaleCurve: 0
    ScaleCurve:
      serializedVersion: 2
      m_Curve:
      - serializedVersion: 2
        time: 0
        value: 0.1
        inSlope: 0
        outSlope: 0
        tangentMode: 0
      - serializedVersion: 2
        time: 0.5
        value: 1
        inSlope: 0
        outSlope: 0
        tangentMode: 0
      - serializedVersion: 2
        time: 1
        value: 0.1
        inSlope: 0
        outSlope: 0
        tangentMode: 0
      m_PreInfinity: 2
      m_PostInfinity: 2
      m_RotationOrder: 4
    OverrideDynamicEdgeBoost: 0
    DynamicEdgeBoostOverride: 1
    OverrideDynamicCenterBoost: 1
    DynamicCenterBoostOverride: -0.95
    OverrideDynamicEdgeBrightness: 0
    DynamicEdgeBrightnessOverride: 0.4
    OverrideDynamicCenterBrightness: 1
    DynamicCenterBrightnessOverride: -0.08
    subElements:
    - color: {r: 1, g: 1, b: 1, a: 1}
      colorFinal: {r: 1, g: 1, b: 1, a: 1}
      position: 1
      offset: {x: 1.9200829, y: 0.1816839, z: 0}
      angle: 0
      scale: 1.4115
      random: 0.07440817
      random2: 0.042111516
      RandomScaleSeed: 0.5
      RandomColorSeedR: 0.95313
      RandomColorSeedG: 0.92629886
      RandomColorSeedB: -0.6976335
      RandomColorSeedA: 0.5
    - color: {r: 1, g: 1, b: 1, a: 1}
      colorFinal: {r: 1, g: 1, b: 1, a: 1}
      position: 1
      offset: {x: 1.9200829, y: 0.1816839, z: 0}
      angle: 0
      scale: 1.4115
      random: 0.94060314
      random2: 0.95055234
      RandomScaleSeed: 0.5
      RandomColorSeedR: 0.61862016
      RandomColorSeedG: -0.79279065
      RandomColorSeedB: 0.09548342
      RandomColorSeedA: 0.5
    - color: {r: 1, g: 1, b: 1, a: 1}
      colorFinal: {r: 1, g: 1, b: 1, a: 1}
      position: 1
      offset: {x: 1.9200829, y: 0.1816839, z: 0}
      angle: 0
      scale: 1.4115
      random: 0.109802246
      random2: 0.8209641
      RandomScaleSeed: 0.5
      RandomColorSeedR: -0.36702287
      RandomColorSeedG: -0.7173095
      RandomColorSeedB: 0.49853942
      RandomColorSeedA: 0.5
    - color: {r: 1, g: 1, b: 1, a: 1}
      colorFinal: {r: 1, g: 1, b: 1, a: 1}
      position: 1
      offset: {x: 1.9200829, y: 0.1816839, z: 0}
      angle: 0
      scale: 1.4115
      random: 0.3476383
      random2: 0.9247813
      RandomScaleSeed: 0.5
      RandomColorSeedR: 0.8157654
      RandomColorSeedG: -0.56564164
      RandomColorSeedB: -0.7399719
      RandomColorSeedA: 0.5
    - color: {r: 1, g: 1, b: 1, a: 1}
      colorFinal: {r: 1, g: 1, b: 1, a: 1}
      position: 1
      offset: {x: 1.9200829, y: 0.1816839, z: 0}
      angle: 0
      scale: 1.4115
      random: 0.9160143
      random2: 0.9937458
      RandomScaleSeed: 0.5
      RandomColorSeedR: 0.40896723
      RandomColorSeedG: -0.15932238
      RandomColorSeedB: -0.42402184
      RandomColorSeedA: 0.5
    size: {x: 0.52, y: 1.44}
    EditDynamicTriggering: 0
    EditOcclusion: 0
    ElementSetting: 0
    OffsetSetting: 0
    ColorSetting: 0
    ScaleSetting: 0
    RotationSetting: 0
    OverrideSetting: 1
    colorTexture: {fileID: 0}
    colorTextureDirty: 1
    type: 0
  - Editing: 0
    Visible: 1
    elementTextureID: 17
    SpriteName: Iris_Pentagon_Chroma
    flare: {fileID: 11400000}
    flareAtlas: {fileID: 11400000, guid: cb9d833d9a9304870b9f6bad04ea93e3, type: 2}
    Brightness: 1
    Scale: 0.56
    ScaleRandom: 0.292
    ScaleFinal: 0.98605084
    RandomColorAmount: {x: 0, y: 0, z: 0, w: 0}
    position: -1
    useRangeOffset: 1
    SubElementPositionRange_Min: -1
    SubElementPositionRange_Max: 1
    SubElementAngleRange_Min: -180
    SubElementAngleRange_Max: 180
    OffsetPosition: {x: -0.043108728, y: -0.081287324, z: 0}
    Anamorphic: {x: 0, y: 0, z: 0}
    OffsetPostion: {x: 0, y: 0, z: 0}
    angle: 0
    FinalAngle: 0
    useRandomAngle: 0
    useStarRotation: 0
    AngleRandom_Min: 0
    AngleRandom_Max: 0
    OrientToSource: 0
    rotateToFlare: 0
    rotationSpeed: 0
    rotationOverTime: 0
    useColorRange: 0
    ElementFinalColor: {r: 0.84705883, g: 0.90588236, b: 1, a: 0.30980393}
    ElementTint: {r: 1, g: 1, b: 1, a: 0.09411765}
    SubElementColor_Start: {r: 1, g: 1, b: 1, a: 1}
    SubElementColor_End: {r: 1, g: 1, b: 1, a: 1}
    useScaleCurve: 1
    ScaleCurve:
      serializedVersion: 2
      m_Curve:
      - serializedVersion: 2
        time: 0
        value: 0.1
        inSlope: 0
        outSlope: 0
        tangentMode: 0
      - serializedVersion: 2
        time: 0.6761281
        value: 0.39764708
        inSlope: 0
        outSlope: 0
        tangentMode: 0
      - serializedVersion: 2
        time: 0.74516094
        value: 0.19171181
        inSlope: -1.334995
        outSlope: -1.334995
        tangentMode: 0
      - serializedVersion: 2
        time: 0.891242
        value: 0.9500969
        inSlope: -0.39462
        outSlope: -0.39462
        tangentMode: 0
      - serializedVersion: 2
        time: 1
        value: 0.1
        inSlope: 0
        outSlope: 0
        tangentMode: 0
      m_PreInfinity: 2
      m_PostInfinity: 2
      m_RotationOrder: 4
    OverrideDynamicEdgeBoost: 0
    DynamicEdgeBoostOverride: 1
    OverrideDynamicCenterBoost: 1
    DynamicCenterBoostOverride: 0.41
    OverrideDynamicEdgeBrightness: 0
    DynamicEdgeBrightnessOverride: 0.4
    OverrideDynamicCenterBrightness: 1
    DynamicCenterBrightnessOverride: -0.1
    subElements:
    - color: {r: 1, g: 1, b: 1, a: 0.09411765}
      colorFinal: {r: 0.8507463, g: 0.906438, b: 1, a: 0.07498521}
      position: 0.6872091
      offset: {x: 0.6320393, y: 0.119028114, z: 0}
      angle: 0
      scale: 0.76655793
      random: 0.84360456
      random2: 0.7851777
      RandomScaleSeed: 0.050994754
      RandomColorSeedR: 0.9339464
      RandomColorSeedG: 0.09069598
      RandomColorSeedB: 0.9402435
      RandomColorSeedA: -0.97188616
    - color: {r: 1, g: 1, b: 1, a: 0.09411765}
      colorFinal: {r: 0.8507463, g: 0.906438, b: 1, a: 0.07498521}
      position: -0.9465537
      offset: {x: -0.8705634, y: -0.16394791, z: 0}
      angle: 0
      scale: 0.08915761
      random: 0.026723146
      random2: 0.01665759
      RandomScaleSeed: -0.41222775
      RandomColorSeedR: -0.14302099
      RandomColorSeedG: 0.44121906
      RandomColorSeedB: 0.08050287
      RandomColorSeedA: -0.928653
    - color: {r: 1, g: 1, b: 1, a: 0.09411765}
      colorFinal: {r: 0.8507463, g: 0.906438, b: 1, a: 0.07498521}
      position: -0.76098585
      offset: {x: -0.6998931, y: -0.13180661, z: 0}
      angle: 0
      scale: 0.10401077
      random: 0.119507074
      random2: 0.36876947
      RandomScaleSeed: -0.5661166
      RandomColorSeedR: 0.11502087
      RandomColorSeedG: 0.2797818
      RandomColorSeedB: -0.9803064
      RandomColorSeedA: -0.01104033
    - color: {r: 1, g: 1, b: 1, a: 0.09411765}
      colorFinal: {r: 0.8507463, g: 0.906438, b: 1, a: 0.07498521}
      position: -0.37989008
      offset: {x: -0.34939212, y: -0.06579889, z: 0}
      angle: 0
      scale: 0.22320266
      random: 0.31005496
      random2: 0.48932606
      RandomScaleSeed: -0.10655606
      RandomColorSeedR: -0.032577157
      RandomColorSeedG: 0.9068394
      RandomColorSeedB: 0.84249926
      RandomColorSeedA: -0.21199763
    - color: {r: 1, g: 1, b: 1, a: 0.09411765}
      colorFinal: {r: 0.8507463, g: 0.906438, b: 1, a: 0.07498521}
      position: -0.6253884
      offset: {x: -0.57518154, y: -0.108320445, z: 0}
      angle: 0
      scale: 0.17167318
      random: 0.18730581
      random2: 0.5819321
      RandomScaleSeed: 0.34717104
      RandomColorSeedR: -0.64051676
      RandomColorSeedG: -0.2859913
      RandomColorSeedB: 0.61561584
      RandomColorSeedA: 0.01076901
    - color: {r: 1, g: 1, b: 1, a: 0.09411765}
      colorFinal: {r: 0.8507463, g: 0.906438, b: 1, a: 0.07498521}
      position: 0.6107619
      offset: {x: 0.5617293, y: 0.10578706, z: 0}
      angle: 0
      scale: 0.44656384
      random: 0.80538094
      random2: 0.64923775
      RandomScaleSeed: -0.026732326
      RandomColorSeedR: 0.14298356
      RandomColorSeedG: -0.30983245
      RandomColorSeedB: -0.20429885
      RandomColorSeedA: -0.7204182
    - color: {r: 1, g: 1, b: 1, a: 0.09411765}
      colorFinal: {r: 0.8507463, g: 0.906438, b: 1, a: 0.07498521}
      position: -0.26490867
      offset: {x: -0.24364154, y: -0.045883525, z: 0}
      angle: 0
      scale: 0.30848685
      random: 0.36754566
      random2: 0.02723515
      RandomScaleSeed: 0.51380897
      RandomColorSeedR: -0.14193666
      RandomColorSeedG: -0.6885252
      RandomColorSeedB: -0.5782652
      RandomColorSeedA: -0.35121238
    - color: {r: 1, g: 1, b: 1, a: 0.09411765}
      colorFinal: {r: 0.8507463, g: 0.906438, b: 1, a: 0.07498521}
      position: 0.4237497
      offset: {x: 0.38973063, y: 0.073395595, z: 0}
      angle: 0
      scale: 0.35550842
      random: 0.71187484
      random2: 0.73567605
      RandomScaleSeed: 0.61894345
      RandomColorSeedR: 0.81984496
      RandomColorSeedG: 0.1474551
      RandomColorSeedB: -0.6364951
      RandomColorSeedA: 0.0059603453
    - color: {r: 1, g: 1, b: 1, a: 0.09411765}
      colorFinal: {r: 0.8507463, g: 0.906438, b: 1, a: 0.07498521}
      position: -0.37338102
      offset: {x: -0.3434056, y: -0.06467149, z: 0}
      angle: 0
      scale: 0.21655388
      random: 0.3133095
      random2: 0.46402794
      RandomScaleSeed: -0.23497069
      RandomColorSeedR: -0.6957927
      RandomColorSeedG: -0.5599568
      RandomColorSeedB: 0.007136941
      RandomColorSeedA: 0.27997658
    size: {x: 1, y: 1}
    EditDynamicTriggering: 0
    EditOcclusion: 0
    ElementSetting: 1
    OffsetSetting: 1
    ColorSetting: 1
    ScaleSetting: 1
    RotationSetting: 1
    OverrideSetting: 1
    colorTexture: {fileID: 0}
    colorTextureDirty: 1
    type: 1
  thisTransform: {fileID: 400000}
  LensPosition: {x: 0.24132904, y: 0.41339746, z: 10}
  EditGlobals: 1
  GlobalScale: 82
  MultiplyScaleByTransformScale: 0
  GlobalBrightness: 1
  GlobalTintColor: {r: 0.8507463, g: 0.906438, b: 1, a: 1}
  useMaxDistance: 1
  useDistanceScale: 1
  useDistanceFade: 1
  GlobalMaxDistance: 150
  UseAngleLimit: 0
  maxAngle: 90
  UseAngleScale: 0
  UseAngleBrightness: 1
  UseAngleCurve: 0
  AngleCurve:
    serializedVersion: 2
    m_Curve:
    - serializedVersion: 2
      time: 0
      value: 0
      inSlope: 0
      outSlope: 0
      tangentMode: 0
    - serializedVersion: 2
      time: 1
      value: 1
      inSlope: 0
      outSlope: 0
      tangentMode: 0
    m_PreInfinity: 2
    m_PostInfinity: 2
    m_RotationOrder: 4
  mask:
    serializedVersion: 2
    m_Bits: 1
  RaycastPhysics: 0
  Occluded: 0
  OccludeScale: 1
  OccludingObject: {fileID: 0}
  EditDynamicTriggering: 1
  EditOcclusion: 0
  IoSetting: 0
  OffScreenFadeDist: 0.2
  useDynamicEdgeBoost: 1
  DynamicEdgeBoost: 1.2
  DynamicEdgeBrightness: 0.1
  DynamicEdgeRange: 0.3
  DynamicEdgeBias: -0.33
  DynamicEdgeCurve:
    serializedVersion: 2
    m_Curve:
    - serializedVersion: 2
      time: 0
      value: 0
      inSlope: 0
      outSlope: 0
      tangentMode: 0
    - serializedVersion: 2
      time: 0.5
      value: 1
      inSlope: 0
      outSlope: 0
      tangentMode: 0
    - serializedVersion: 2
      time: 1
      value: 0
      inSlope: 0
      outSlope: 0
      tangentMode: 0
    m_PreInfinity: 2
    m_PostInfinity: 2
    m_RotationOrder: 4
  useDynamicCenterBoost: 1
  DynamicCenterBoost: 0.1
  DynamicCenterBrightness: 0
  DynamicCenterRange: 0.3
  DynamicCenterBias: 0
  neverCull: 0
  DisabledPlayMode: 1
--- !u!1001 &100100000
Prefab:
  m_ObjectHideFlags: 1
  serializedVersion: 2
  m_Modification:
    m_TransformParent: {fileID: 0}
    m_Modifications: []
    m_RemovedComponents: []
  m_ParentPrefab: {fileID: 0}
  m_RootGameObject: {fileID: 100000}
  m_IsPrefabParent: 1
