%YAML 1.1
%TAG !u! tag:unity3d.com,2011:
--- !u!1 &100000
GameObject:
  m_ObjectHideFlags: 0
  m_PrefabParentObject: {fileID: 0}
  m_PrefabInternal: {fileID: 100100000}
  serializedVersion: 5
  m_Component:
  - component: {fileID: 400000}
  - component: {fileID: 11400000}
  m_Layer: 8
  m_Name: White Spark
  m_TagString: Untagged
  m_Icon: {fileID: 0}
  m_NavMeshLayer: 0
  m_StaticEditorFlags: 0
  m_IsActive: 1
--- !u!4 &400000
Transform:
  m_ObjectHideFlags: 1
  m_PrefabParentObject: {fileID: 0}
  m_PrefabInternal: {fileID: 100100000}
  m_GameObject: {fileID: 100000}
  m_LocalRotation: {x: 0, y: 0, z: 0, w: 1}
  m_LocalPosition: {x: 0, y: 0, z: 0}
  m_LocalScale: {x: 1, y: 1, z: 1}
  m_Children: []
  m_Father: {fileID: 0}
  m_RootOrder: 0
  m_LocalEulerAnglesHint: {x: 0, y: 0, z: 0}
--- !u!114 &11400000
MonoBehaviour:
  m_ObjectHideFlags: 1
  m_PrefabParentObject: {fileID: 0}
  m_PrefabInternal: {fileID: 100100000}
  m_GameObject: {fileID: 100000}
  m_Enabled: 1
  m_EditorHideFlags: 0
  m_Script: {fileID: 11500000, guid: 15b6679336c128b459f37ee207e8c880, type: 3}
  m_Name: 
  m_EditorClassIdentifier: 
  _Atlas: {fileID: 11400000, guid: cb9d833d9a9304870b9f6bad04ea93e3, type: 2}
  FlareBatches:
  - {fileID: 0}
  EditingAtlas: 0
  isVisible: 1
  Elements:
  - Editing: 0
    Visible: 1
    elementTextureID: 9
    SpriteName: Glow_Chroma
    flare: {fileID: 11400000}
    flareAtlas: {fileID: 11400000, guid: cb9d833d9a9304870b9f6bad04ea93e3, type: 2}
    Brightness: 1
    Scale: 0.51
    ScaleRandom: 0
    ScaleFinal: 0.93333334
    RandomColorAmount: {x: 0, y: 0, z: 0, w: 0}
    position: -1
    useRangeOffset: 0
    SubElementPositionRange_Min: -1
    SubElementPositionRange_Max: 1
    SubElementAngleRange_Min: -180
    SubElementAngleRange_Max: 180
    OffsetPosition: {x: -0.919719, y: -0.17320508, z: 0}
    Anamorphic: {x: 0, y: 0, z: 0}
    OffsetPostion: {x: 0, y: 0, z: 0}
    angle: 0
    FinalAngle: 0
    useRandomAngle: 0
    useStarRotation: 0
    AngleRandom_Min: 0
    AngleRandom_Max: 0
    OrientToSource: 0
    rotateToFlare: 0
    rotationSpeed: 0
    rotationOverTime: 0
    useColorRange: 0
    ElementFinalColor: {r: 1, g: 0.92203164, b: 0.68247, a: 0.34405228}
    ElementTint: {r: 1, g: 1, b: 0.8627451, a: 0.36862746}
    SubElementColor_Start: {r: 1, g: 1, b: 1, a: 1}
    SubElementColor_End: {r: 1, g: 1, b: 1, a: 1}
    useScaleCurve: 0
    ScaleCurve:
      serializedVersion: 2
      m_Curve:
      - serializedVersion: 2
        time: 0
        value: 0.1
        inSlope: 0
        outSlope: 0
        tangentMode: 0
      - serializedVersion: 2
        time: 0.5
        value: 1
        inSlope: 0
        outSlope: 0
        tangentMode: 0
      - serializedVersion: 2
        time: 1
        value: 0.1
        inSlope: 0
        outSlope: 0
        tangentMode: 0
      m_PreInfinity: 2
      m_PostInfinity: 2
      m_RotationOrder: 4
    OverrideDynamicEdgeBoost: 0
    DynamicEdgeBoostOverride: 1
    OverrideDynamicCenterBoost: 0
    DynamicCenterBoostOverride: 1
    OverrideDynamicEdgeBrightness: 0
    DynamicEdgeBrightnessOverride: 0.4
    OverrideDynamicCenterBrightness: 0
    DynamicCenterBrightnessOverride: 0.4
    subElements: []
    size: {x: 1, y: 1}
    EditDynamicTriggering: 0
    EditOcclusion: 0
    ElementSetting: 0
    OffsetSetting: 0
    ColorSetting: 0
    ScaleSetting: 0
    RotationSetting: 0
    OverrideSetting: 0
    colorTexture: {fileID: 0}
    colorTextureDirty: 1
    type: 0
  - Editing: 0
    Visible: 1
    elementTextureID: 42
    SpriteName: Streak_LongWhite
    flare: {fileID: 11400000}
    flareAtlas: {fileID: 11400000, guid: cb9d833d9a9304870b9f6bad04ea93e3, type: 2}
    Brightness: 1
    Scale: 1
    ScaleRandom: 0
    ScaleFinal: 0.93333334
    RandomColorAmount: {x: 0, y: 0, z: 0, w: 0}
    position: -1
    useRangeOffset: 0
    SubElementPositionRange_Min: -1
    SubElementPositionRange_Max: 1
    SubElementAngleRange_Min: -180
    SubElementAngleRange_Max: 180
    OffsetPosition: {x: -0.17209692, y: 0.05852747, z: 0}
    Anamorphic: {x: 0, y: 0, z: 0}
    OffsetPostion: {x: 0, y: 0, z: 0}
    angle: 46.51
    FinalAngle: 46.51
    useRandomAngle: 0
    useStarRotation: 1
    AngleRandom_Min: 0
    AngleRandom_Max: 0
    OrientToSource: 0
    rotateToFlare: 0
    rotationSpeed: 0
    rotationOverTime: 0
    useColorRange: 0
    ElementFinalColor: {r: 1, g: 1, b: 1, a: 0.30980393}
    ElementTint: {r: 1, g: 1, b: 1, a: 0.19607843}
    SubElementColor_Start: {r: 1, g: 1, b: 1, a: 1}
    SubElementColor_End: {r: 1, g: 1, b: 1, a: 1}
    useScaleCurve: 0
    ScaleCurve:
      serializedVersion: 2
      m_Curve:
      - serializedVersion: 2
        time: 0
        value: 0.1
        inSlope: 0
        outSlope: 0
        tangentMode: 0
      - serializedVersion: 2
        time: 0.5
        value: 1
        inSlope: 0
        outSlope: 0
        tangentMode: 0
      - serializedVersion: 2
        time: 1
        value: 0.1
        inSlope: 0
        outSlope: 0
        tangentMode: 0
      m_PreInfinity: 2
      m_PostInfinity: 2
      m_RotationOrder: 4
    OverrideDynamicEdgeBoost: 0
    DynamicEdgeBoostOverride: 1
    OverrideDynamicCenterBoost: 0
    DynamicCenterBoostOverride: 1
    OverrideDynamicEdgeBrightness: 0
    DynamicEdgeBrightnessOverride: 0.4
    OverrideDynamicCenterBrightness: 0
    DynamicCenterBrightnessOverride: 0.4
    subElements:
    - color: {r: 1, g: 1, b: 1, a: 0.19607843}
      colorFinal: {r: 1, g: 0.92203164, b: 0.7910448, a: 0.18300654}
      position: 0.16402805
      offset: {x: -0.919719, y: -0.17320508, z: 0}
      angle: 0
      scale: 1
      random: 0.582014
      random2: 0.89144516
      RandomScaleSeed: 0.5
      RandomColorSeedR: -0.84190536
      RandomColorSeedG: -0.2707175
      RandomColorSeedB: 0.29709503
      RandomColorSeedA: 0.5
    - color: {r: 1, g: 1, b: 1, a: 0.19607843}
      colorFinal: {r: 1, g: 0.92203164, b: 0.7910448, a: 0.18300654}
      position: 0.5755222
      offset: {x: -0.919719, y: -0.17320508, z: 0}
      angle: 90
      scale: 1
      random: 0.7877611
      random2: 0.6321467
      RandomScaleSeed: 0.5
      RandomColorSeedR: 0.57177734
      RandomColorSeedG: 0.82221174
      RandomColorSeedB: 0.13836944
      RandomColorSeedA: 0.5
    size: {x: 1, y: 0.07}
    EditDynamicTriggering: 0
    EditOcclusion: 0
    ElementSetting: 1
    OffsetSetting: 1
    ColorSetting: 0
    ScaleSetting: 1
    RotationSetting: 1
    OverrideSetting: 0
    colorTexture: {fileID: 0}
    colorTextureDirty: 1
    type: 1
  - Editing: 0
    Visible: 1
    elementTextureID: 31
    SpriteName: Shimmer_Long_Chroma_02
    flare: {fileID: 11400000}
    flareAtlas: {fileID: 11400000, guid: cb9d833d9a9304870b9f6bad04ea93e3, type: 2}
    Brightness: 1
    Scale: 0.24
    ScaleRandom: 1
    ScaleFinal: 0.93333334
    RandomColorAmount: {x: 0, y: 0, z: 0, w: 0}
    position: -1
    useRangeOffset: 0
    SubElementPositionRange_Min: -1
    SubElementPositionRange_Max: 1
    SubElementAngleRange_Min: -180
    SubElementAngleRange_Max: 180
    OffsetPosition: {x: -0.17209688, y: 0.05852747, z: 0}
    Anamorphic: {x: 0, y: 0, z: 0}
    OffsetPostion: {x: 0, y: 0, z: 0}
    angle: 0.98
    FinalAngle: 0.98
    useRandomAngle: 0
    useStarRotation: 1
    AngleRandom_Min: 0
    AngleRandom_Max: 0
    OrientToSource: 0
    rotateToFlare: 0
    rotationSpeed: 0
    rotationOverTime: 0
    useColorRange: 0
    ElementFinalColor: {r: 1, g: 1, b: 1, a: 0.039215688}
    ElementTint: {r: 1, g: 1, b: 1, a: 0.043137256}
    SubElementColor_Start: {r: 1, g: 1, b: 1, a: 1}
    SubElementColor_End: {r: 1, g: 1, b: 1, a: 1}
    useScaleCurve: 0
    ScaleCurve:
      serializedVersion: 2
      m_Curve:
      - serializedVersion: 2
        time: 0
        value: 0.1
        inSlope: 0
        outSlope: 0
        tangentMode: 0
      - serializedVersion: 2
        time: 0.5
        value: 1
        inSlope: 0
        outSlope: 0
        tangentMode: 0
      - serializedVersion: 2
        time: 1
        value: 0.1
        inSlope: 0
        outSlope: 0
        tangentMode: 0
      m_PreInfinity: 2
      m_PostInfinity: 2
      m_RotationOrder: 4
    OverrideDynamicEdgeBoost: 0
    DynamicEdgeBoostOverride: 1
    OverrideDynamicCenterBoost: 0
    DynamicCenterBoostOverride: 1
    OverrideDynamicEdgeBrightness: 0
    DynamicEdgeBrightnessOverride: 0.4
    OverrideDynamicCenterBrightness: 0
    DynamicCenterBrightnessOverride: 0.4
    subElements:
    - color: {r: 1, g: 1, b: 1, a: 0.043137256}
      colorFinal: {r: 1, g: 0.92203164, b: 0.7910448, a: 0.04026144}
      position: -0.96164465
      offset: {x: -0.919719, y: -0.17320508, z: 0}
      angle: 0
      scale: 1.5
      random: 0.019177675
      random2: 0.49712223
      RandomScaleSeed: 0.5
      RandomColorSeedR: -0.4549514
      RandomColorSeedG: -0.39442623
      RandomColorSeedB: -0.40067923
      RandomColorSeedA: 0.5
    - color: {r: 1, g: 1, b: 1, a: 0.043137256}
      colorFinal: {r: 1, g: 0.92203164, b: 0.7910448, a: 0.04026144}
      position: 0.832721
      offset: {x: -0.919719, y: -0.17320508, z: 0}
      angle: 36
      scale: 1.5
      random: 0.9163605
      random2: 0.8873459
      RandomScaleSeed: 0.5
      RandomColorSeedR: 0.26851198
      RandomColorSeedG: -0.94235444
      RandomColorSeedB: 0.93174934
      RandomColorSeedA: 0.5
    - color: {r: 1, g: 1, b: 1, a: 0.043137256}
      colorFinal: {r: 1, g: 0.92203164, b: 0.7910448, a: 0.04026144}
      position: 0.64157677
      offset: {x: -0.919719, y: -0.17320508, z: 0}
      angle: 72
      scale: 1.5
      random: 0.8207884
      random2: 0.08973098
      RandomScaleSeed: 0.5
      RandomColorSeedR: 0.8824978
      RandomColorSeedG: 0.64978075
      RandomColorSeedB: 0.16749084
      RandomColorSeedA: 0.5
    - color: {r: 1, g: 1, b: 1, a: 0.043137256}
      colorFinal: {r: 1, g: 0.92203164, b: 0.7910448, a: 0.04026144}
      position: 0.23972881
      offset: {x: -0.919719, y: -0.17320508, z: 0}
      angle: 108
      scale: 1.5
      random: 0.6198644
      random2: 0.79824793
      RandomScaleSeed: 0.5
      RandomColorSeedR: 0.30449125
      RandomColorSeedG: -0.5685315
      RandomColorSeedB: 0.641732
      RandomColorSeedA: 0.5
    - color: {r: 1, g: 1, b: 1, a: 0.043137256}
      colorFinal: {r: 1, g: 0.92203164, b: 0.7910448, a: 0.04026144}
      position: -0.4249705
      offset: {x: -0.919719, y: -0.17320508, z: 0}
      angle: 144
      scale: 1.5
      random: 0.28751475
      random2: 0.2138499
      RandomScaleSeed: 0.5
      RandomColorSeedR: 0.62269044
      RandomColorSeedG: -0.9114182
      RandomColorSeedB: 0.81057787
      RandomColorSeedA: 0.5
    size: {x: 1, y: 1}
    EditDynamicTriggering: 0
    EditOcclusion: 0
    ElementSetting: 0
    OffsetSetting: 1
    ColorSetting: 0
    ScaleSetting: 1
    RotationSetting: 1
    OverrideSetting: 0
    colorTexture: {fileID: 0}
    colorTextureDirty: 1
    type: 1
  - Editing: 0
    Visible: 1
    elementTextureID: 12
    SpriteName: Glow_NoneUniform_02
    flare: {fileID: 11400000}
    flareAtlas: {fileID: 11400000, guid: cb9d833d9a9304870b9f6bad04ea93e3, type: 2}
    Brightness: 1
    Scale: 1
    ScaleRandom: 0
    ScaleFinal: 0.93333334
    RandomColorAmount: {x: 0, y: 0, z: 0, w: 0}
    position: -1
    useRangeOffset: 0
    SubElementPositionRange_Min: -1
    SubElementPositionRange_Max: 1
    SubElementAngleRange_Min: -180
    SubElementAngleRange_Max: 180
    OffsetPosition: {x: -0.919719, y: -0.17320508, z: 0}
    Anamorphic: {x: 0, y: 0, z: 0}
    OffsetPostion: {x: 0, y: 0, z: 0}
    angle: 0
    FinalAngle: 0
    useRandomAngle: 0
    useStarRotation: 0
    AngleRandom_Min: 0
    AngleRandom_Max: 0
    OrientToSource: 0
    rotateToFlare: 0
    rotationSpeed: 0
    rotationOverTime: 0
    useColorRange: 0
    ElementFinalColor: {r: 1, g: 0.92203164, b: 0.7910448, a: 0.31111112}
    ElementTint: {r: 1, g: 1, b: 1, a: 0.33333334}
    SubElementColor_Start: {r: 1, g: 1, b: 1, a: 1}
    SubElementColor_End: {r: 1, g: 1, b: 1, a: 1}
    useScaleCurve: 0
    ScaleCurve:
      serializedVersion: 2
      m_Curve:
      - serializedVersion: 2
        time: 0
        value: 0.1
        inSlope: 0
        outSlope: 0
        tangentMode: 0
      - serializedVersion: 2
        time: 0.5
        value: 1
        inSlope: 0
        outSlope: 0
        tangentMode: 0
      - serializedVersion: 2
        time: 1
        value: 0.1
        inSlope: 0
        outSlope: 0
        tangentMode: 0
      m_PreInfinity: 2
      m_PostInfinity: 2
      m_RotationOrder: 4
    OverrideDynamicEdgeBoost: 0
    DynamicEdgeBoostOverride: 1
    OverrideDynamicCenterBoost: 0
    DynamicCenterBoostOverride: 1
    OverrideDynamicEdgeBrightness: 0
    DynamicEdgeBrightnessOverride: 0.4
    OverrideDynamicCenterBrightness: 0
    DynamicCenterBrightnessOverride: 0.4
    subElements: []
    size: {x: 1, y: 1}
    EditDynamicTriggering: 0
    EditOcclusion: 0
    ElementSetting: 0
    OffsetSetting: 0
    ColorSetting: 0
    ScaleSetting: 0
    RotationSetting: 0
    OverrideSetting: 0
    colorTexture: {fileID: 0}
    colorTextureDirty: 1
    type: 0
  - Editing: 0
    Visible: 1
    elementTextureID: 19
    SpriteName: Iris_Pentagon_SuperSoft
    flare: {fileID: 11400000}
    flareAtlas: {fileID: 11400000, guid: cb9d833d9a9304870b9f6bad04ea93e3, type: 2}
    Brightness: 1
    Scale: 0.27
    ScaleRandom: 0
    ScaleFinal: 0.93333334
    RandomColorAmount: {x: 0.699, y: 0.912, z: 0, w: 0}
    position: -1
    useRangeOffset: 1
    SubElementPositionRange_Min: 0.5864406
    SubElementPositionRange_Max: 1.2135594
    SubElementAngleRange_Min: -180
    SubElementAngleRange_Max: 180
    OffsetPosition: {x: -0.8469728, y: 0.05852747, z: 0}
    Anamorphic: {x: 0, y: 0, z: 0}
    OffsetPostion: {x: 0, y: 0, z: 0}
    angle: 0
    FinalAngle: -16.623375
    useRandomAngle: 0
    useStarRotation: 0
    AngleRandom_Min: 0
    AngleRandom_Max: 0
    OrientToSource: 0
    rotateToFlare: 0
    rotationSpeed: 15.21
    rotationOverTime: 0
    useColorRange: 0
    ElementFinalColor: {r: 1, g: 0.92156863, b: 0.7882353, a: 0.30980393}
    ElementTint: {r: 0.22352941, g: 0.3372549, b: 1, a: 0.12941177}
    SubElementColor_Start: {r: 1, g: 1, b: 1, a: 1}
    SubElementColor_End: {r: 1, g: 1, b: 1, a: 1}
    useScaleCurve: 1
    ScaleCurve:
      serializedVersion: 2
      m_Curve:
      - serializedVersion: 2
        time: 0
        value: 0
        inSlope: 2
        outSlope: 2
        tangentMode: 0
      - serializedVersion: 2
        time: 1
        value: 1
        inSlope: 0
        outSlope: 0
        tangentMode: 0
      m_PreInfinity: 2
      m_PostInfinity: 2
      m_RotationOrder: 4
    OverrideDynamicEdgeBoost: 1
    DynamicEdgeBoostOverride: 0
    OverrideDynamicCenterBoost: 1
    DynamicCenterBoostOverride: 0
    OverrideDynamicEdgeBrightness: 1
    DynamicEdgeBrightnessOverride: 0
    OverrideDynamicCenterBrightness: 1
    DynamicCenterBrightnessOverride: -0.14
    subElements:
    - color: {r: 0, g: 0, b: 1, a: 0.12941177}
      colorFinal: {r: 0, g: 0, b: 0.7910448, a: 0.12078432}
      position: 0.97764224
      offset: {x: 0.8991561, y: 0.1693326, z: 0}
      angle: 0
      scale: 0.85847944
      random: 0.62380785
      random2: 0.7863138
      RandomScaleSeed: 0.86785126
      RandomColorSeedR: -0.84731364
      RandomColorSeedG: -0.74270916
      RandomColorSeedB: -0.5247915
      RandomColorSeedA: 0.83949876
    - color: {r: 0.27470344, g: 0, b: 1, a: 0.12941177}
      colorFinal: {r: 0.27470344, g: 0, b: 0.7910448, a: 0.12078432}
      position: 0.6436159
      offset: {x: 0.59194577, y: 0.11147754, z: 0}
      angle: 0
      scale: 0.17403054
      random: 0.091171384
      random2: 0.3107038
      RandomScaleSeed: 0.08538616
      RandomColorSeedR: 0.07321036
      RandomColorSeedG: -0.52665925
      RandomColorSeedB: 0.9014404
      RandomColorSeedA: 0.08605659
    - color: {r: 0.78012973, g: 0, b: 1, a: 0.12941177}
      colorFinal: {r: 0.78012973, g: 0, b: 0.7910448, a: 0.12078432}
      position: 0.72769517
      offset: {x: 0.66927505, y: 0.1260405, z: 0}
      angle: 0
      scale: 0.39975265
      random: 0.22524369
      random2: 0.8084099
      RandomScaleSeed: 0.95547533
      RandomColorSeedR: 0.79628086
      RandomColorSeedG: -0.4787866
      RandomColorSeedB: -0.9792242
      RandomColorSeedA: 0.8781998
    - color: {r: 0.081663445, g: 0, b: 1, a: 0.12941177}
      colorFinal: {r: 0.081663445, g: 0, b: 0.7910448, a: 0.12078432}
      position: 0.8392826
      offset: {x: 0.7719041, y: 0.14536801, z: 0}
      angle: 0
      scale: 0.6438062
      random: 0.4031803
      random2: 0.38491875
      RandomScaleSeed: 0.57203054
      RandomColorSeedR: -0.2029556
      RandomColorSeedG: -0.981858
      RandomColorSeedB: -0.31553376
      RandomColorSeedA: 0.06852543
    - color: {r: 0.89341384, g: 0.076481715, b: 1, a: 0.12941177}
      colorFinal: {r: 0.89341384, g: 0.07051856, b: 0.7910448, a: 0.12078432}
      position: 0.87744355
      offset: {x: 0.8070015, y: 0.15197767, z: 0}
      angle: 0
      scale: 0.71273786
      random: 0.46403164
      random2: 0.7687969
      RandomScaleSeed: 0.22860563
      RandomColorSeedR: 0.95834684
      RandomColorSeedG: -0.28593552
      RandomColorSeedB: 0.6554246
      RandomColorSeedA: -0.39362252
    size: {x: 1, y: 1}
    EditDynamicTriggering: 0
    EditOcclusion: 0
    ElementSetting: 1
    OffsetSetting: 1
    ColorSetting: 1
    ScaleSetting: 1
    RotationSetting: 1
    OverrideSetting: 1
    colorTexture: {fileID: 0}
    colorTextureDirty: 1
    type: 1
  thisTransform: {fileID: 400000}
  LensPosition: {x: 0.24132904, y: 0.41339746, z: 10}
  EditGlobals: 1
  GlobalScale: 100
  MultiplyScaleByTransformScale: 0
  GlobalBrightness: 1
  GlobalTintColor: {r: 1, g: 0.92203164, b: 0.7910448, a: 1}
  useMaxDistance: 1
  useDistanceScale: 1
  useDistanceFade: 1
  GlobalMaxDistance: 150
  UseAngleLimit: 0
  maxAngle: 90
  UseAngleScale: 0
  UseAngleBrightness: 1
  UseAngleCurve: 0
  AngleCurve:
    serializedVersion: 2
    m_Curve:
    - serializedVersion: 2
      time: 0
      value: 0
      inSlope: 0
      outSlope: 0
      tangentMode: 0
    - serializedVersion: 2
      time: 1
      value: 1
      inSlope: 0
      outSlope: 0
      tangentMode: 0
    m_PreInfinity: 2
    m_PostInfinity: 2
    m_RotationOrder: 4
  mask:
    serializedVersion: 2
    m_Bits: 1
  RaycastPhysics: 0
  Occluded: 0
  OccludeScale: 1
  OccludingObject: {fileID: 0}
  EditDynamicTriggering: 1
  EditOcclusion: 0
  IoSetting: 0
  OffScreenFadeDist: 0.2
  useDynamicEdgeBoost: 1
  DynamicEdgeBoost: 1.2
  DynamicEdgeBrightness: 0.1
  DynamicEdgeRange: 0.3
  DynamicEdgeBias: -0.1
  DynamicEdgeCurve:
    serializedVersion: 2
    m_Curve:
    - serializedVersion: 2
      time: 0
      value: 0
      inSlope: 0
      outSlope: 0
      tangentMode: 0
    - serializedVersion: 2
      time: 0.5
      value: 1
      inSlope: 0
      outSlope: 0
      tangentMode: 0
    - serializedVersion: 2
      time: 1
      value: 0
      inSlope: 0
      outSlope: 0
      tangentMode: 0
    m_PreInfinity: 2
    m_PostInfinity: 2
    m_RotationOrder: 4
  useDynamicCenterBoost: 1
  DynamicCenterBoost: 0.1
  DynamicCenterBrightness: 0
  DynamicCenterRange: 0.1
  DynamicCenterBias: 0
  neverCull: 0
  DisabledPlayMode: 1
--- !u!1001 &100100000
Prefab:
  m_ObjectHideFlags: 1
  serializedVersion: 2
  m_Modification:
    m_TransformParent: {fileID: 0}
    m_Modifications: []
    m_RemovedComponents: []
  m_ParentPrefab: {fileID: 0}
  m_RootGameObject: {fileID: 100000}
  m_IsPrefabParent: 1
