%YAML 1.1
%TAG !u! tag:unity3d.com,2011:
--- !u!21 &2100000
Material:
  serializedVersion: 6
  m_ObjectHideFlags: 0
  m_PrefabParentObject: {fileID: 0}
  m_PrefabInternal: {fileID: 0}
  m_Name: SeaMobile
  m_Shader: {fileID: 4800000, guid: 56d51706552e4a944b8b25b0e5b36dd9, type: 3}
  m_ShaderKeywords: 
  m_LightmapFlags: 0
  m_EnableInstancingVariants: 0
  m_DoubleSidedGI: 0
  m_CustomRenderQueue: -1
  stringTagMap: {}
  disabledShaderPasses: []
  m_SavedProperties:
    serializedVersion: 3
    m_TexEnvs:
    - _FoamTexture:
        m_Texture: {fileID: 2800000, guid: 0af227fb6078e4f45a4ed1ff20c180c0, type: 3}
        m_Scale: {x: 1, y: 1}
        m_Offset: {x: 0, y: 0}
    - _SecondaryFoamTex:
        m_Texture: {fileID: 0}
        m_Scale: {x: 1, y: 1}
        m_Offset: {x: 0, y: 0}
    - _WaterTexture:
        m_Texture: {fileID: 2800000, guid: a67d2228caf588945b19a42fbd3c3967, type: 3}
        m_Scale: {x: 1, y: 1}
        m_Offset: {x: 0, y: 0}
    m_Floats:
    - _FoamIntensity: 2.04
    - _FoamScale: 10
    - _FresnelExp: 5
    - _Gradient1: 3.58
    - _Gradient2: 4.74
    - _MainFoamIntensity: 12.59
    - _MainFoamOpacity: 0.1
    - _MainFoamScale: 12.75
    - _SecondaryFoamIntensity: 21.41
    - _SecondaryFoamOpacity: 0.41
    - _SecondaryFoamScale: 16.62
    m_Colors:
    - _Color0: {r: 0.31617647, g: 1, b: 0.94340754, a: 1}
    - _Color1: {r: 0.13473184, g: 0.24583581, b: 0.6544118, a: 1}
    - _Color2: {r: 0.038657, g: 0.2833341, b: 0.4044118, a: 1}
    - _FresnelColor: {r: 0.7205882, g: 0.907505, b: 1, a: 1}
