%YAML 1.1
%TAG !u! tag:unity3d.com,2011:
--- !u!21 &2100000
Material:
  serializedVersion: 6
  m_ObjectHideFlags: 0
  m_PrefabParentObject: {fileID: 0}
  m_PrefabInternal: {fileID: 0}
  m_Name: WOOD 02
  m_Shader: {fileID: 4800000, guid: ece4c83d06b04d64394d14e12b5b251b, type: 3}
  m_ShaderKeywords: 
  m_LightmapFlags: 4
  m_EnableInstancingVariants: 0
  m_DoubleSidedGI: 0
  m_CustomRenderQueue: -1
  stringTagMap: {}
  disabledShaderPasses: []
  m_SavedProperties:
    serializedVersion: 3
    m_TexEnvs:
    - _BumpMap:
        m_Texture: {fileID: 0}
        m_Scale: {x: 1, y: 1}
        m_Offset: {x: 0, y: 0}
    - _DetailAlbedoMap:
        m_Texture: {fileID: 0}
        m_Scale: {x: 1, y: 1}
        m_Offset: {x: 0, y: 0}
    - _DetailMask:
        m_Texture: {fileID: 0}
        m_Scale: {x: 1, y: 1}
        m_Offset: {x: 0, y: 0}
    - _DetailNormalMap:
        m_Texture: {fileID: 0}
        m_Scale: {x: 1, y: 1}
        m_Offset: {x: 0, y: 0}
    - _EmissionMap:
        m_Texture: {fileID: 0}
        m_Scale: {x: 1, y: 1}
        m_Offset: {x: 0, y: 0}
    - _MainTex:
        m_Texture: {fileID: 0}
        m_Scale: {x: 1, y: 1}
        m_Offset: {x: 0, y: 0}
    - _MetallicGlossMap:
        m_Texture: {fileID: 0}
        m_Scale: {x: 1, y: 1}
        m_Offset: {x: 0, y: 0}
    - _OcclusionMap:
        m_Texture: {fileID: 0}
        m_Scale: {x: 1, y: 1}
        m_Offset: {x: 0, y: 0}
    - _ParallaxMap:
        m_Texture: {fileID: 0}
        m_Scale: {x: 1, y: 1}
        m_Offset: {x: 0, y: 0}
    - _Pattern:
        m_Texture: {fileID: 2800000, guid: 1cc5d5077b81e2b4c8a340543c5d7a54, type: 3}
        m_Scale: {x: 1, y: 1}
        m_Offset: {x: 0, y: 0}
    - _node_3145:
        m_Texture: {fileID: 2800000, guid: def05750fed13a541929625fc0185699, type: 3}
        m_Scale: {x: 1, y: 1}
        m_Offset: {x: 0, y: 0}
    m_Floats:
    - _BumpScale: 1
    - _Cutoff: 0.5
    - _DetailNormalMapScale: 1
    - _DstBlend: 0
    - _Fresnel: -0.4
    - _GlossMapScale: 1
    - _Glossiness: 9.8
    - _GlossyReflections: 1
    - _Metallic: 0
    - _Mode: 0
    - _OcclusionStrength: 1
    - _Parallax: 0.02
    - _SmoothnessTextureChannel: 0
    - _Specular: 4.79
    - _SpecularHighlights: 1
    - _SrcBlend: 1
    - _Tile: 1
    - _UVSec: 0
    - _ZWrite: 1
    - _fresnelpower: 3.15
    - _glossiness: 3.6
    - _node_1099: 2
    - _node_3289: 1
    - _node_3552: 3.31
    - _node_4507: 1.83
    - _node_4562: 4.376881
    - _node_4961: 5.33
    - _specular: 0.74
    m_Colors:
    - _Color: {r: 1, g: 0, b: 0, a: 1}
    - _EmissionColor: {r: 0, g: 0, b: 0, a: 1}
    - _FresnelColor: {r: 1, g: 0.20588237, b: 0.20588237, a: 1}
    - _Light: {r: 0.6838235, g: 0.49331, b: 0.3469399, a: 1}
    - _Shadow: {r: 0.36764705, g: 0.14333016, b: 0.021626296, a: 1}
    - _node_1188: {r: 0.5, g: 0.5, b: 0.5, a: 1}
    - _node_4114: {r: 0.66176474, g: 0.23356402, b: 0.23356402, a: 1}
    - _node_7683: {r: 0.24264705, g: 0.05530925, b: 0.05530925, a: 1}
    - _node_7683_copy: {r: 0.6838235, g: 0.3350458, b: 0.14581533, a: 1}
    - _node_8753: {r: 0, g: 0.7205882, b: 0.7205882, a: 1}
    - _node_9187: {r: 0.5, g: 0.5, b: 0.5, a: 1}
    - _node_9271: {r: 0.6102941, g: 0.37737966, b: 0.29168466, a: 1}
    - _specularcolor: {r: 0.61764705, g: 0.19528547, b: 0.19528547, a: 1}
