%YAML 1.1
%TAG !u! tag:unity3d.com,2011:
--- !u!21 &2100000
Material:
  serializedVersion: 6
  m_ObjectHideFlags: 0
  m_PrefabParentObject: {fileID: 0}
  m_PrefabInternal: {fileID: 0}
  m_Name: StylizedWaterMobile
  m_Shader: {fileID: 4800000, guid: 56d51706552e4a944b8b25b0e5b36dd9, type: 3}
  m_ShaderKeywords: 
  m_LightmapFlags: 0
  m_EnableInstancingVariants: 0
  m_DoubleSidedGI: 0
  m_CustomRenderQueue: -1
  stringTagMap: {}
  disabledShaderPasses: []
  m_SavedProperties:
    serializedVersion: 3
    m_TexEnvs:
    - _FoamTexture:
        m_Texture: {fileID: 2800000, guid: 0af227fb6078e4f45a4ed1ff20c180c0, type: 3}
        m_Scale: {x: 1, y: 1}
        m_Offset: {x: 0, y: 0}
    - _SecondaryFoamTex:
        m_Texture: {fileID: 0}
        m_Scale: {x: 1, y: 1}
        m_Offset: {x: 0, y: 0}
    - _WaterTexture:
        m_Texture: {fileID: 2800000, guid: 0af227fb6078e4f45a4ed1ff20c180c0, type: 3}
        m_Scale: {x: 1, y: 1}
        m_Offset: {x: 0, y: 0}
    m_Floats:
    - _FoamIntensity: 2.04
    - _FoamScale: 10
    - _FresnelExp: 5
    - _Gradient1: 3.21
    - _Gradient2: 4.74
    - _MainFoamIntensity: 1.04
    - _MainFoamOpacity: 1
    - _MainFoamScale: 17.36
    - _SecondaryFoamIntensity: 2.32
    - _SecondaryFoamOpacity: 0.507
    - _SecondaryFoamScale: 17.6
    m_Colors:
    - _Color0: {r: 0, g: 0.89705884, b: 0.85993904, a: 1}
    - _Color1: {r: 0, g: 0.46206903, b: 1, a: 1}
    - _Color2: {r: 0.038657, g: 0.11685274, b: 0.4044118, a: 1}
    - _FresnelColor: {r: 0.7205882, g: 0.907505, b: 1, a: 1}
