%YAML 1.1
%TAG !u! tag:unity3d.com,2011:
--- !u!29 &1
OcclusionCullingSettings:
  m_ObjectHideFlags: 0
  serializedVersion: 2
  m_OcclusionBakeSettings:
    smallestOccluder: 5
    smallestHole: 0.25
    backfaceThreshold: 100
  m_SceneGUID: 00000000000000000000000000000000
  m_OcclusionCullingData: {fileID: 0}
--- !u!196 &4
NavMeshSettings:
  serializedVersion: 2
  m_ObjectHideFlags: 0
  m_BuildSettings:
    serializedVersion: 2
    agentTypeID: 0
    agentRadius: 0.5
    agentHeight: 2
    agentSlope: 45
    agentClimb: 0.4
    ledgeDropHeight: 0
    maxJumpAcrossDistance: 0
    minRegionArea: 2
    manualCellSize: 0
    cellSize: 0.16666667
    manualTileSize: 0
    tileSize: 256
    accuratePlacement: 0
    debug:
      m_Flags: 0
  m_NavMeshData: {fileID: 0}
--- !u!1 &84
GameObject:
  m_ObjectHideFlags: 0
  m_PrefabParentObject: {fileID: 0}
  m_PrefabInternal: {fileID: 0}
  serializedVersion: 5
  m_Component:
  - component: {fileID: 244}
  - component: {fileID: 576}
  m_Layer: 0
  m_Name: Directional Light
  m_TagString: Untagged
  m_Icon: {fileID: 0}
  m_NavMeshLayer: 0
  m_StaticEditorFlags: 0
  m_IsActive: 1
--- !u!4 &164
Transform:
  m_ObjectHideFlags: 0
  m_PrefabParentObject: {fileID: 0}
  m_PrefabInternal: {fileID: 0}
  m_GameObject: {fileID: 1687578796}
  m_LocalRotation: {x: 0.45783812, y: -0.19577774, z: 0.10411241, w: 0.860939}
  m_LocalPosition: {x: 8.3, y: 16.5, z: -12.1}
  m_LocalScale: {x: 1, y: 1, z: 1}
  m_Children: []
  m_Father: {fileID: 496107241}
  m_RootOrder: 0
  m_LocalEulerAnglesHint: {x: 56.007004, y: -25.622002, z: 0}
--- !u!4 &244
Transform:
  m_ObjectHideFlags: 0
  m_PrefabParentObject: {fileID: 0}
  m_PrefabInternal: {fileID: 0}
  m_GameObject: {fileID: 84}
  m_LocalRotation: {x: -0.6409535, y: 0.7310874, z: -0.18852933, w: -0.13837107}
  m_LocalPosition: {x: 12.478544, y: 12.425982, z: 20.911446}
  m_LocalScale: {x: 1, y: 1, z: 1}
  m_Children: []
  m_Father: {fileID: 0}
  m_RootOrder: 0
  m_LocalEulerAnglesHint: {x: 26.939001, y: 1977.47, z: 276.911}
--- !u!20 &320
Camera:
  m_ObjectHideFlags: 0
  m_PrefabParentObject: {fileID: 0}
  m_PrefabInternal: {fileID: 0}
  m_GameObject: {fileID: 1687578796}
  m_Enabled: 1
  serializedVersion: 2
  m_ClearFlags: 1
  m_BackGroundColor: {r: 0.19215687, g: 0.3019608, b: 0.4745098, a: 0.019607844}
  m_NormalizedViewPortRect:
    serializedVersion: 2
    x: 0
    y: 0
    width: 1
    height: 1
  near clip plane: 0.2
  far clip plane: 1000
  field of view: 60.2
  orthographic: 0
  orthographic size: 14.6
  m_Depth: 1
  m_CullingMask:
    serializedVersion: 2
    m_Bits: 4294967295
  m_RenderingPath: -1
  m_TargetTexture: {fileID: 0}
  m_TargetDisplay: 0
  m_TargetEye: 3
  m_HDR: 0
  m_AllowMSAA: 0
  m_ForceIntoRT: 0
  m_OcclusionCulling: 1
  m_StereoConvergence: 10
  m_StereoSeparation: 0.022
--- !u!81 &571
AudioListener:
  m_ObjectHideFlags: 0
  m_PrefabParentObject: {fileID: 0}
  m_PrefabInternal: {fileID: 0}
  m_GameObject: {fileID: 1687578796}
  m_Enabled: 1
--- !u!92 &572
Behaviour:
  m_ObjectHideFlags: 0
  m_PrefabParentObject: {fileID: 0}
  m_PrefabInternal: {fileID: 0}
  m_GameObject: {fileID: 1687578796}
  m_Enabled: 1
--- !u!104 &575
RenderSettings:
  m_ObjectHideFlags: 0
  serializedVersion: 8
  m_Fog: 0
  m_FogColor: {r: 0.41911763, g: 0.5673427, b: 1, a: 1}
  m_FogMode: 2
  m_FogDensity: 0.02
  m_LinearFogStart: 31.1
  m_LinearFogEnd: 118.6
  m_AmbientSkyColor: {r: 0.85294116, g: 0.85294116, b: 0.85294116, a: 0.45}
  m_AmbientEquatorColor: {r: 0.9411765, g: 0.97809327, b: 1, a: 0.45}
  m_AmbientGroundColor: {r: 0, g: 0.5862069, b: 1, a: 0.45}
  m_AmbientIntensity: 1.53
  m_AmbientMode: 1
  m_SubtractiveShadowColor: {r: 0.42, g: 0.478, b: 0.627, a: 1}
  m_SkyboxMaterial: {fileID: 10304, guid: 0000000000000000f000000000000000, type: 0}
  m_HaloStrength: 0.5
  m_FlareStrength: 1
  m_FlareFadeSpeed: 3
  m_HaloTexture: {fileID: 0}
  m_SpotCookie: {fileID: 10001, guid: 0000000000000000e000000000000000, type: 0}
  m_DefaultReflectionMode: 0
  m_DefaultReflectionResolution: 256
  m_ReflectionBounces: 1
  m_ReflectionIntensity: 0
  m_CustomReflection: {fileID: 0}
  m_Sun: {fileID: 576}
  m_IndirectSpecularColor: {r: 0, g: 0, b: 0, a: 0}
--- !u!108 &576
Light:
  m_ObjectHideFlags: 0
  m_PrefabParentObject: {fileID: 0}
  m_PrefabInternal: {fileID: 0}
  m_GameObject: {fileID: 84}
  m_Enabled: 1
  serializedVersion: 8
  m_Type: 1
  m_Color: {r: 1, g: 0.9006085, b: 0.6397059, a: 1}
  m_Intensity: 1.6
  m_Range: 10
  m_SpotAngle: 30
  m_CookieSize: 10
  m_Shadows:
    m_Type: 0
    m_Resolution: 3
    m_CustomResolution: -1
    m_Strength: 0.731
    m_Bias: 0.13
    m_NormalBias: 0
    m_NearPlane: 0.2
  m_Cookie: {fileID: 0}
  m_DrawHalo: 0
  m_Flare: {fileID: 0}
  m_RenderMode: 0
  m_CullingMask:
    serializedVersion: 2
    m_Bits: 4294967295
  m_Lightmapping: 1
  m_AreaSize: {x: 1, y: 1}
  m_BounceIntensity: 1
  m_ColorTemperature: 6570
  m_UseColorTemperature: 0
  m_ShadowRadius: 0
  m_ShadowAngle: 0
--- !u!124 &577
Behaviour:
  m_ObjectHideFlags: 0
  m_PrefabParentObject: {fileID: 0}
  m_PrefabInternal: {fileID: 0}
  m_GameObject: {fileID: 1687578796}
  m_Enabled: 1
--- !u!157 &580
LightmapSettings:
  m_ObjectHideFlags: 0
  serializedVersion: 11
  m_GIWorkflowMode: 1
  m_GISettings:
    serializedVersion: 2
    m_BounceScale: 1
    m_IndirectOutputScale: 1.4
    m_AlbedoBoost: 1
    m_TemporalCoherenceThreshold: 1
    m_EnvironmentLightingMode: 0
    m_EnableBakedLightmaps: 0
    m_EnableRealtimeLightmaps: 0
  m_LightmapEditorSettings:
    serializedVersion: 9
    m_Resolution: 2
    m_BakeResolution: 40
    m_TextureWidth: 1024
    m_TextureHeight: 1024
    m_AO: 0
    m_AOMaxDistance: 1
    m_CompAOExponent: 0
    m_CompAOExponentDirect: 0
    m_Padding: 2
    m_LightmapParameters: {fileID: 0}
    m_LightmapsBakeMode: 1
    m_TextureCompression: 1
    m_FinalGather: 0
    m_FinalGatherFiltering: 1
    m_FinalGatherRayCount: 1024
    m_ReflectionCompression: 2
    m_MixedBakeMode: 1
    m_BakeBackend: 0
    m_PVRSampling: 1
    m_PVRDirectSampleCount: 32
    m_PVRSampleCount: 500
    m_PVRBounces: 2
    m_PVRFilterTypeDirect: 0
    m_PVRFilterTypeIndirect: 0
    m_PVRFilterTypeAO: 0
    m_PVRFilteringMode: 1
    m_PVRCulling: 1
    m_PVRFilteringGaussRadiusDirect: 1
    m_PVRFilteringGaussRadiusIndirect: 5
    m_PVRFilteringGaussRadiusAO: 2
    m_PVRFilteringAtrousPositionSigmaDirect: 0.5
    m_PVRFilteringAtrousPositionSigmaIndirect: 2
    m_PVRFilteringAtrousPositionSigmaAO: 1
  m_LightingDataAsset: {fileID: 0}
  m_UseShadowmask: 1
--- !u!1 &114459999
GameObject:
  m_ObjectHideFlags: 0
  m_PrefabParentObject: {fileID: 1325706528868540, guid: 956df95a8cb6ee748abadc9cf7d73c26,
    type: 2}
  m_PrefabInternal: {fileID: 0}
  serializedVersion: 5
  m_Component:
  - component: {fileID: 114460000}
  - component: {fileID: 114460002}
  - component: {fileID: 114460001}
  m_Layer: 0
  m_Name: Rock4 (1)
  m_TagString: Untagged
  m_Icon: {fileID: 0}
  m_NavMeshLayer: 0
  m_StaticEditorFlags: 0
  m_IsActive: 1
--- !u!4 &114460000
Transform:
  m_ObjectHideFlags: 0
  m_PrefabParentObject: {fileID: 4217805229066718, guid: 956df95a8cb6ee748abadc9cf7d73c26,
    type: 2}
  m_PrefabInternal: {fileID: 0}
  m_GameObject: {fileID: 114459999}
  m_LocalRotation: {x: -0.2835151, y: 0.48766905, z: 0.56219536, w: 0.60475993}
  m_LocalPosition: {x: 11.879368, y: 1.7078552, z: -11.692223}
  m_LocalScale: {x: 1.1830715, y: 0.88713086, z: 1.358321}
  m_Children: []
  m_Father: {fileID: 1822787865}
  m_RootOrder: 1
  m_LocalEulerAnglesHint: {x: -116.97, y: 216.705, z: -117.173004}
--- !u!23 &114460001
MeshRenderer:
  m_ObjectHideFlags: 0
  m_PrefabParentObject: {fileID: 23234117297481988, guid: 956df95a8cb6ee748abadc9cf7d73c26,
    type: 2}
  m_PrefabInternal: {fileID: 0}
  m_GameObject: {fileID: 114459999}
  m_Enabled: 1
  m_CastShadows: 1
  m_ReceiveShadows: 1
  m_DynamicOccludee: 1
  m_MotionVectors: 1
  m_LightProbeUsage: 1
  m_ReflectionProbeUsage: 1
  m_Materials:
  - {fileID: 2100000, guid: 17ffcd4a6e0b0bb41a9449932833ca36, type: 2}
  m_StaticBatchInfo:
    firstSubMesh: 0
    subMeshCount: 0
  m_StaticBatchRoot: {fileID: 0}
  m_ProbeAnchor: {fileID: 0}
  m_LightProbeVolumeOverride: {fileID: 0}
  m_ScaleInLightmap: 1
  m_PreserveUVs: 0
  m_IgnoreNormalsForChartDetection: 0
  m_ImportantGI: 0
  m_StitchLightmapSeams: 0
  m_SelectedEditorRenderState: 3
  m_MinimumChartSize: 4
  m_AutoUVMaxDistance: 0.5
  m_AutoUVMaxAngle: 89
  m_LightmapParameters: {fileID: 0}
  m_SortingLayerID: 0
  m_SortingLayer: 0
  m_SortingOrder: 0
--- !u!33 &114460002
MeshFilter:
  m_ObjectHideFlags: 0
  m_PrefabParentObject: {fileID: 33001603647158168, guid: 956df95a8cb6ee748abadc9cf7d73c26,
    type: 2}
  m_PrefabInternal: {fileID: 0}
  m_GameObject: {fileID: 114459999}
  m_Mesh: {fileID: 4300024, guid: 6d0968d9cb3b4ae4fbede0bd2589dd03, type: 3}
--- !u!1 &305698988
GameObject:
  m_ObjectHideFlags: 0
  m_PrefabParentObject: {fileID: 1406421437436014, guid: 956df95a8cb6ee748abadc9cf7d73c26,
    type: 2}
  m_PrefabInternal: {fileID: 0}
  serializedVersion: 5
  m_Component:
  - component: {fileID: 305698989}
  - component: {fileID: 305698991}
  - component: {fileID: 305698990}
  m_Layer: 0
  m_Name: LightHouseTerrain
  m_TagString: Untagged
  m_Icon: {fileID: 0}
  m_NavMeshLayer: 0
  m_StaticEditorFlags: 4294967295
  m_IsActive: 1
--- !u!4 &305698989
Transform:
  m_ObjectHideFlags: 0
  m_PrefabParentObject: {fileID: 4631617534610792, guid: 956df95a8cb6ee748abadc9cf7d73c26,
    type: 2}
  m_PrefabInternal: {fileID: 0}
  m_GameObject: {fileID: 305698988}
  m_LocalRotation: {x: 0.41455036, y: 0.5728421, z: 0.57284194, w: 0.41455042}
  m_LocalPosition: {x: -76.56915, y: -160.86711, z: -6.339943}
  m_LocalScale: {x: 1, y: 1, z: 1}
  m_Children: []
  m_Father: {fileID: 327760561}
  m_RootOrder: 2
  m_LocalEulerAnglesHint: {x: 0, y: 0, z: 0}
--- !u!154 &305698990
TerrainCollider:
  m_ObjectHideFlags: 0
  m_PrefabParentObject: {fileID: 154033957222292776, guid: 956df95a8cb6ee748abadc9cf7d73c26,
    type: 2}
  m_PrefabInternal: {fileID: 0}
  m_GameObject: {fileID: 305698988}
  m_Material: {fileID: 0}
  m_Enabled: 1
  m_TerrainData: {fileID: 15600000, guid: d709e3ebe22e1d640a5526e7a76062de, type: 2}
  m_EnableTreeColliders: 1
--- !u!218 &305698991
Terrain:
  m_ObjectHideFlags: 0
  m_PrefabParentObject: {fileID: 218968902286588264, guid: 956df95a8cb6ee748abadc9cf7d73c26,
    type: 2}
  m_PrefabInternal: {fileID: 0}
  m_GameObject: {fileID: 305698988}
  m_Enabled: 1
  serializedVersion: 3
  m_TerrainData: {fileID: 15600000, guid: d709e3ebe22e1d640a5526e7a76062de, type: 2}
  m_TreeDistance: 2000
  m_TreeBillboardDistance: 50
  m_TreeCrossFadeLength: 5
  m_TreeMaximumFullLODCount: 50
  m_DetailObjectDistance: 80
  m_DetailObjectDensity: 1
  m_HeightmapPixelError: 5
  m_SplatMapDistance: 1000
  m_HeightmapMaximumLOD: 0
  m_CastShadows: 1
  m_DrawHeightmap: 1
  m_DrawTreesAndFoliage: 1
  m_ReflectionProbeUsage: 1
  m_MaterialType: 0
  m_LegacySpecular:
    serializedVersion: 2
    rgba: 4286545791
  m_LegacyShininess: 0.078125
  m_MaterialTemplate: {fileID: 0}
  m_BakeLightProbesForTrees: 1
  m_ScaleInLightmap: 0.0512
  m_LightmapParameters: {fileID: 15203, guid: 0000000000000000f000000000000000, type: 0}
--- !u!1 &327760558
GameObject:
  m_ObjectHideFlags: 0
  m_PrefabParentObject: {fileID: 1579078047340152, guid: 956df95a8cb6ee748abadc9cf7d73c26,
    type: 2}
  m_PrefabInternal: {fileID: 0}
  serializedVersion: 5
  m_Component:
  - component: {fileID: 327760561}
  - component: {fileID: 327760560}
  - component: {fileID: 327760559}
  m_Layer: 0
  m_Name: Lighthouse
  m_TagString: Untagged
  m_Icon: {fileID: 0}
  m_NavMeshLayer: 0
  m_StaticEditorFlags: 0
  m_IsActive: 1
--- !u!23 &327760559
MeshRenderer:
  m_ObjectHideFlags: 0
  m_PrefabParentObject: {fileID: 23251500918762110, guid: 956df95a8cb6ee748abadc9cf7d73c26,
    type: 2}
  m_PrefabInternal: {fileID: 0}
  m_GameObject: {fileID: 327760558}
  m_Enabled: 1
  m_CastShadows: 1
  m_ReceiveShadows: 1
  m_DynamicOccludee: 1
  m_MotionVectors: 1
  m_LightProbeUsage: 1
  m_ReflectionProbeUsage: 1
  m_Materials:
  - {fileID: 2100000, guid: cef98db1bfaa76f47b249a3fa6a2bf2a, type: 2}
  m_StaticBatchInfo:
    firstSubMesh: 0
    subMeshCount: 0
  m_StaticBatchRoot: {fileID: 0}
  m_ProbeAnchor: {fileID: 0}
  m_LightProbeVolumeOverride: {fileID: 0}
  m_ScaleInLightmap: 1
  m_PreserveUVs: 0
  m_IgnoreNormalsForChartDetection: 0
  m_ImportantGI: 0
  m_StitchLightmapSeams: 0
  m_SelectedEditorRenderState: 3
  m_MinimumChartSize: 4
  m_AutoUVMaxDistance: 0.5
  m_AutoUVMaxAngle: 89
  m_LightmapParameters: {fileID: 0}
  m_SortingLayerID: 0
  m_SortingLayer: 0
  m_SortingOrder: 0
--- !u!33 &327760560
MeshFilter:
  m_ObjectHideFlags: 0
  m_PrefabParentObject: {fileID: 33335191926904812, guid: 956df95a8cb6ee748abadc9cf7d73c26,
    type: 2}
  m_PrefabInternal: {fileID: 0}
  m_GameObject: {fileID: 327760558}
  m_Mesh: {fileID: 4300048, guid: 6d0968d9cb3b4ae4fbede0bd2589dd03, type: 3}
--- !u!4 &327760561
Transform:
  m_ObjectHideFlags: 0
  m_PrefabParentObject: {fileID: 4184540588169248, guid: 956df95a8cb6ee748abadc9cf7d73c26,
    type: 2}
  m_PrefabInternal: {fileID: 0}
  m_GameObject: {fileID: 327760558}
  m_LocalRotation: {x: -0.41455036, y: -0.5728421, z: -0.57284194, w: 0.41455042}
  m_LocalPosition: {x: 0, y: 0, z: 0}
  m_LocalScale: {x: 1, y: 1, z: 1}
  m_Children:
  - {fileID: 421525792}
  - {fileID: 1822787865}
  - {fileID: 305698989}
  m_Father: {fileID: 0}
  m_RootOrder: 2
  m_LocalEulerAnglesHint: {x: -90.00001, y: 0, z: 1331.785}
--- !u!1001 &341250059
Prefab:
  m_ObjectHideFlags: 0
  serializedVersion: 2
  m_Modification:
    m_TransformParent: {fileID: 0}
    m_Modifications:
    - target: {fileID: 4283422753506132, guid: 73b3cf2dc9443284f9494120405a22c0, type: 2}
      propertyPath: m_LocalPosition.x
      value: -0.58
      objectReference: {fileID: 0}
    - target: {fileID: 4283422753506132, guid: 73b3cf2dc9443284f9494120405a22c0, type: 2}
      propertyPath: m_LocalPosition.y
      value: -4
      objectReference: {fileID: 0}
    - target: {fileID: 4283422753506132, guid: 73b3cf2dc9443284f9494120405a22c0, type: 2}
      propertyPath: m_LocalPosition.z
      value: -1.7
      objectReference: {fileID: 0}
    - target: {fileID: 4283422753506132, guid: 73b3cf2dc9443284f9494120405a22c0, type: 2}
      propertyPath: m_LocalRotation.x
      value: -0
      objectReference: {fileID: 0}
    - target: {fileID: 4283422753506132, guid: 73b3cf2dc9443284f9494120405a22c0, type: 2}
      propertyPath: m_LocalRotation.y
      value: -0
      objectReference: {fileID: 0}
    - target: {fileID: 4283422753506132, guid: 73b3cf2dc9443284f9494120405a22c0, type: 2}
      propertyPath: m_LocalRotation.z
      value: -0
      objectReference: {fileID: 0}
    - target: {fileID: 4283422753506132, guid: 73b3cf2dc9443284f9494120405a22c0, type: 2}
      propertyPath: m_LocalRotation.w
      value: 1
      objectReference: {fileID: 0}
    - target: {fileID: 4283422753506132, guid: 73b3cf2dc9443284f9494120405a22c0, type: 2}
      propertyPath: m_RootOrder
      value: 1
      objectReference: {fileID: 0}
    - target: {fileID: 4283422753506132, guid: 73b3cf2dc9443284f9494120405a22c0, type: 2}
      propertyPath: m_LocalScale.x
      value: 10
      objectReference: {fileID: 0}
    - target: {fileID: 4283422753506132, guid: 73b3cf2dc9443284f9494120405a22c0, type: 2}
      propertyPath: m_LocalScale.y
      value: 10
      objectReference: {fileID: 0}
    - target: {fileID: 4283422753506132, guid: 73b3cf2dc9443284f9494120405a22c0, type: 2}
      propertyPath: m_LocalScale.z
      value: 10
      objectReference: {fileID: 0}
    m_RemovedComponents: []
  m_ParentPrefab: {fileID: 100100000, guid: 73b3cf2dc9443284f9494120405a22c0, type: 2}
  m_RootGameObject: {fileID: 1786145805}
  m_IsPrefabParent: 0
--- !u!1 &392596094
GameObject:
  m_ObjectHideFlags: 0
  m_PrefabParentObject: {fileID: 1515472094473328, guid: 956df95a8cb6ee748abadc9cf7d73c26,
    type: 2}
  m_PrefabInternal: {fileID: 0}
  serializedVersion: 5
  m_Component:
  - component: {fileID: 392596095}
  - component: {fileID: 392596097}
  - component: {fileID: 392596096}
  m_Layer: 0
  m_Name: Rock2 (1)
  m_TagString: Untagged
  m_Icon: {fileID: 0}
  m_NavMeshLayer: 0
  m_StaticEditorFlags: 0
  m_IsActive: 1
--- !u!4 &392596095
Transform:
  m_ObjectHideFlags: 0
  m_PrefabParentObject: {fileID: 4187470127997836, guid: 956df95a8cb6ee748abadc9cf7d73c26,
    type: 2}
  m_PrefabInternal: {fileID: 0}
  m_GameObject: {fileID: 392596094}
  m_LocalRotation: {x: -0.89097214, y: -0.42695162, z: -0.0006585558, w: 0.15453345}
  m_LocalPosition: {x: 10.19, y: 1.98, z: -9.87}
  m_LocalScale: {x: 1.332256, y: 1.3322557, z: 1.3322557}
  m_Children: []
  m_Father: {fileID: 1822787865}
  m_RootOrder: 0
  m_LocalEulerAnglesHint: {x: -16.018002, y: -172.18001, z: 127.69101}
--- !u!23 &392596096
MeshRenderer:
  m_ObjectHideFlags: 0
  m_PrefabParentObject: {fileID: 23664751691638246, guid: 956df95a8cb6ee748abadc9cf7d73c26,
    type: 2}
  m_PrefabInternal: {fileID: 0}
  m_GameObject: {fileID: 392596094}
  m_Enabled: 1
  m_CastShadows: 1
  m_ReceiveShadows: 1
  m_DynamicOccludee: 1
  m_MotionVectors: 1
  m_LightProbeUsage: 1
  m_ReflectionProbeUsage: 1
  m_Materials:
  - {fileID: 2100000, guid: 17ffcd4a6e0b0bb41a9449932833ca36, type: 2}
  m_StaticBatchInfo:
    firstSubMesh: 0
    subMeshCount: 0
  m_StaticBatchRoot: {fileID: 0}
  m_ProbeAnchor: {fileID: 0}
  m_LightProbeVolumeOverride: {fileID: 0}
  m_ScaleInLightmap: 1
  m_PreserveUVs: 0
  m_IgnoreNormalsForChartDetection: 0
  m_ImportantGI: 0
  m_StitchLightmapSeams: 0
  m_SelectedEditorRenderState: 3
  m_MinimumChartSize: 4
  m_AutoUVMaxDistance: 0.5
  m_AutoUVMaxAngle: 89
  m_LightmapParameters: {fileID: 0}
  m_SortingLayerID: 0
  m_SortingLayer: 0
  m_SortingOrder: 0
--- !u!33 &392596097
MeshFilter:
  m_ObjectHideFlags: 0
  m_PrefabParentObject: {fileID: 33440333743859164, guid: 956df95a8cb6ee748abadc9cf7d73c26,
    type: 2}
  m_PrefabInternal: {fileID: 0}
  m_GameObject: {fileID: 392596094}
  m_Mesh: {fileID: 4300014, guid: 6d0968d9cb3b4ae4fbede0bd2589dd03, type: 3}
--- !u!1 &421525791
GameObject:
  m_ObjectHideFlags: 0
  m_PrefabParentObject: {fileID: 1659453393580240, guid: 956df95a8cb6ee748abadc9cf7d73c26,
    type: 2}
  m_PrefabInternal: {fileID: 0}
  serializedVersion: 5
  m_Component:
  - component: {fileID: 421525792}
  - component: {fileID: 421525794}
  - component: {fileID: 421525793}
  m_Layer: 0
  m_Name: LightHouse
  m_TagString: Untagged
  m_Icon: {fileID: 0}
  m_NavMeshLayer: 0
  m_StaticEditorFlags: 0
  m_IsActive: 1
--- !u!4 &421525792
Transform:
  m_ObjectHideFlags: 0
  m_PrefabParentObject: {fileID: 4109621772055704, guid: 956df95a8cb6ee748abadc9cf7d73c26,
    type: 2}
  m_PrefabInternal: {fileID: 0}
  m_GameObject: {fileID: 421525791}
  m_LocalRotation: {x: -0.00000035762793, y: 0.00000035762793, z: 0.086474545, w: 0.9962541}
  m_LocalPosition: {x: -0.63, y: -0.47, z: 0.1}
  m_LocalScale: {x: 1, y: 1, z: 1}
  m_Children: []
  m_Father: {fileID: 327760561}
  m_RootOrder: 0
  m_LocalEulerAnglesHint: {x: 0, y: 0, z: 1449.922}
--- !u!23 &421525793
MeshRenderer:
  m_ObjectHideFlags: 0
  m_PrefabParentObject: {fileID: 23460356204277854, guid: 956df95a8cb6ee748abadc9cf7d73c26,
    type: 2}
  m_PrefabInternal: {fileID: 0}
  m_GameObject: {fileID: 421525791}
  m_Enabled: 1
  m_CastShadows: 1
  m_ReceiveShadows: 1
  m_DynamicOccludee: 1
  m_MotionVectors: 1
  m_LightProbeUsage: 1
  m_ReflectionProbeUsage: 1
  m_Materials:
  - {fileID: 2100000, guid: 1c5204841f462bf4dae7c47d2fe3bbd4, type: 2}
  m_StaticBatchInfo:
    firstSubMesh: 0
    subMeshCount: 0
  m_StaticBatchRoot: {fileID: 0}
  m_ProbeAnchor: {fileID: 0}
  m_LightProbeVolumeOverride: {fileID: 0}
  m_ScaleInLightmap: 1
  m_PreserveUVs: 0
  m_IgnoreNormalsForChartDetection: 0
  m_ImportantGI: 0
  m_StitchLightmapSeams: 0
  m_SelectedEditorRenderState: 3
  m_MinimumChartSize: 4
  m_AutoUVMaxDistance: 0.5
  m_AutoUVMaxAngle: 89
  m_LightmapParameters: {fileID: 0}
  m_SortingLayerID: 0
  m_SortingLayer: 0
  m_SortingOrder: 0
--- !u!33 &421525794
MeshFilter:
  m_ObjectHideFlags: 0
  m_PrefabParentObject: {fileID: 33256173658213660, guid: 956df95a8cb6ee748abadc9cf7d73c26,
    type: 2}
  m_PrefabInternal: {fileID: 0}
  m_GameObject: {fileID: 421525791}
  m_Mesh: {fileID: 4300046, guid: 6d0968d9cb3b4ae4fbede0bd2589dd03, type: 3}
--- !u!1 &496107239
GameObject:
  m_ObjectHideFlags: 0
  m_PrefabParentObject: {fileID: 0}
  m_PrefabInternal: {fileID: 0}
  serializedVersion: 5
  m_Component:
  - component: {fileID: 496107241}
  - component: {fileID: 496107240}
  m_Layer: 0
  m_Name: CameraPivot
  m_TagString: Untagged
  m_Icon: {fileID: 0}
  m_NavMeshLayer: 0
  m_StaticEditorFlags: 0
  m_IsActive: 1
--- !u!95 &496107240
Animator:
  serializedVersion: 3
  m_ObjectHideFlags: 0
  m_PrefabParentObject: {fileID: 0}
  m_PrefabInternal: {fileID: 0}
  m_GameObject: {fileID: 496107239}
  m_Enabled: 1
  m_Avatar: {fileID: 0}
  m_Controller: {fileID: 9100000, guid: 371ca0e02e9487c47b6d364512bc86a8, type: 2}
  m_CullingMode: 0
  m_UpdateMode: 0
  m_ApplyRootMotion: 0
  m_LinearVelocityBlending: 0
  m_WarningMessage: 
  m_HasTransformHierarchy: 1
  m_AllowConstantClipSamplingOptimization: 1
--- !u!4 &496107241
Transform:
  m_ObjectHideFlags: 0
  m_PrefabParentObject: {fileID: 0}
  m_PrefabInternal: {fileID: 0}
  m_GameObject: {fileID: 496107239}
  m_LocalRotation: {x: 0, y: 0, z: 0, w: 1}
  m_LocalPosition: {x: -1.9, y: 0, z: 0.09}
  m_LocalScale: {x: 1, y: 1, z: 1}
  m_Children:
  - {fileID: 164}
  m_Father: {fileID: 0}
  m_RootOrder: 3
  m_LocalEulerAnglesHint: {x: 0, y: 0, z: 0}
--- !u!1 &538618545
GameObject:
  m_ObjectHideFlags: 0
  m_PrefabParentObject: {fileID: 1591101663241472, guid: 956df95a8cb6ee748abadc9cf7d73c26,
    type: 2}
  m_PrefabInternal: {fileID: 0}
  serializedVersion: 5
  m_Component:
  - component: {fileID: 538618546}
  - component: {fileID: 538618548}
  - component: {fileID: 538618547}
  m_Layer: 0
  m_Name: Rock4 (1)
  m_TagString: Untagged
  m_Icon: {fileID: 0}
  m_NavMeshLayer: 0
  m_StaticEditorFlags: 0
  m_IsActive: 1
--- !u!4 &538618546
Transform:
  m_ObjectHideFlags: 0
  m_PrefabParentObject: {fileID: 4189606025500870, guid: 956df95a8cb6ee748abadc9cf7d73c26,
    type: 2}
  m_PrefabInternal: {fileID: 0}
  m_GameObject: {fileID: 538618545}
  m_LocalRotation: {x: -0.5295219, y: -0.24013908, z: 0.00020458351, w: 0.8135968}
  m_LocalPosition: {x: 15.079369, y: 2.1578553, z: -4.5222225}
  m_LocalScale: {x: 1.0968432, y: 0.8224722, z: 1.4430004}
  m_Children: []
  m_Father: {fileID: 1822787865}
  m_RootOrder: 2
  m_LocalEulerAnglesHint: {x: -120.509995, y: 129.638, z: -149.895}
--- !u!23 &538618547
MeshRenderer:
  m_ObjectHideFlags: 0
  m_PrefabParentObject: {fileID: 23803994999718274, guid: 956df95a8cb6ee748abadc9cf7d73c26,
    type: 2}
  m_PrefabInternal: {fileID: 0}
  m_GameObject: {fileID: 538618545}
  m_Enabled: 1
  m_CastShadows: 1
  m_ReceiveShadows: 1
  m_DynamicOccludee: 1
  m_MotionVectors: 1
  m_LightProbeUsage: 1
  m_ReflectionProbeUsage: 1
  m_Materials:
  - {fileID: 2100000, guid: 17ffcd4a6e0b0bb41a9449932833ca36, type: 2}
  m_StaticBatchInfo:
    firstSubMesh: 0
    subMeshCount: 0
  m_StaticBatchRoot: {fileID: 0}
  m_ProbeAnchor: {fileID: 0}
  m_LightProbeVolumeOverride: {fileID: 0}
  m_ScaleInLightmap: 1
  m_PreserveUVs: 0
  m_IgnoreNormalsForChartDetection: 0
  m_ImportantGI: 0
  m_StitchLightmapSeams: 0
  m_SelectedEditorRenderState: 3
  m_MinimumChartSize: 4
  m_AutoUVMaxDistance: 0.5
  m_AutoUVMaxAngle: 89
  m_LightmapParameters: {fileID: 0}
  m_SortingLayerID: 0
  m_SortingLayer: 0
  m_SortingOrder: 0
--- !u!33 &538618548
MeshFilter:
  m_ObjectHideFlags: 0
  m_PrefabParentObject: {fileID: 33452812484456666, guid: 956df95a8cb6ee748abadc9cf7d73c26,
    type: 2}
  m_PrefabInternal: {fileID: 0}
  m_GameObject: {fileID: 538618545}
  m_Mesh: {fileID: 4300024, guid: 6d0968d9cb3b4ae4fbede0bd2589dd03, type: 3}
--- !u!1 &741847617
GameObject:
  m_ObjectHideFlags: 0
  m_PrefabParentObject: {fileID: 1974664731772380, guid: 956df95a8cb6ee748abadc9cf7d73c26,
    type: 2}
  m_PrefabInternal: {fileID: 0}
  serializedVersion: 5
  m_Component:
  - component: {fileID: 741847618}
  - component: {fileID: 741847620}
  - component: {fileID: 741847619}
  m_Layer: 0
  m_Name: Rock2 (3)
  m_TagString: Untagged
  m_Icon: {fileID: 0}
  m_NavMeshLayer: 0
  m_StaticEditorFlags: 0
  m_IsActive: 1
--- !u!4 &741847618
Transform:
  m_ObjectHideFlags: 0
  m_PrefabParentObject: {fileID: 4867064570756924, guid: 956df95a8cb6ee748abadc9cf7d73c26,
    type: 2}
  m_PrefabInternal: {fileID: 0}
  m_GameObject: {fileID: 741847617}
  m_LocalRotation: {x: -0.9834346, y: -0.15980335, z: -0.033262134, w: 0.07882243}
  m_LocalPosition: {x: 12.89, y: 5.43, z: -9.93}
  m_LocalScale: {x: 0.22638126, y: 0.22638135, z: 0.22638139}
  m_Children: []
  m_Father: {fileID: 1822787865}
  m_RootOrder: 4
  m_LocalEulerAnglesHint: {x: -9.536, y: -182.338, z: 161.73601}
--- !u!23 &741847619
MeshRenderer:
  m_ObjectHideFlags: 0
  m_PrefabParentObject: {fileID: 23868111464710138, guid: 956df95a8cb6ee748abadc9cf7d73c26,
    type: 2}
  m_PrefabInternal: {fileID: 0}
  m_GameObject: {fileID: 741847617}
  m_Enabled: 1
  m_CastShadows: 1
  m_ReceiveShadows: 1
  m_DynamicOccludee: 1
  m_MotionVectors: 1
  m_LightProbeUsage: 1
  m_ReflectionProbeUsage: 1
  m_Materials:
  - {fileID: 2100000, guid: 17ffcd4a6e0b0bb41a9449932833ca36, type: 2}
  m_StaticBatchInfo:
    firstSubMesh: 0
    subMeshCount: 0
  m_StaticBatchRoot: {fileID: 0}
  m_ProbeAnchor: {fileID: 0}
  m_LightProbeVolumeOverride: {fileID: 0}
  m_ScaleInLightmap: 1
  m_PreserveUVs: 0
  m_IgnoreNormalsForChartDetection: 0
  m_ImportantGI: 0
  m_StitchLightmapSeams: 0
  m_SelectedEditorRenderState: 3
  m_MinimumChartSize: 4
  m_AutoUVMaxDistance: 0.5
  m_AutoUVMaxAngle: 89
  m_LightmapParameters: {fileID: 0}
  m_SortingLayerID: 0
  m_SortingLayer: 0
  m_SortingOrder: 0
--- !u!33 &741847620
MeshFilter:
  m_ObjectHideFlags: 0
  m_PrefabParentObject: {fileID: 33025734720399504, guid: 956df95a8cb6ee748abadc9cf7d73c26,
    type: 2}
  m_PrefabInternal: {fileID: 0}
  m_GameObject: {fileID: 741847617}
  m_Mesh: {fileID: 4300014, guid: 6d0968d9cb3b4ae4fbede0bd2589dd03, type: 3}
--- !u!1 &1044579752
GameObject:
  m_ObjectHideFlags: 0
  m_PrefabParentObject: {fileID: 1645478691315556, guid: 956df95a8cb6ee748abadc9cf7d73c26,
    type: 2}
  m_PrefabInternal: {fileID: 0}
  serializedVersion: 5
  m_Component:
  - component: {fileID: 1044579753}
  - component: {fileID: 1044579755}
  - component: {fileID: 1044579754}
  m_Layer: 0
  m_Name: Rock2 (4)
  m_TagString: Untagged
  m_Icon: {fileID: 0}
  m_NavMeshLayer: 0
  m_StaticEditorFlags: 0
  m_IsActive: 1
--- !u!4 &1044579753
Transform:
  m_ObjectHideFlags: 0
  m_PrefabParentObject: {fileID: 4056840665447082, guid: 956df95a8cb6ee748abadc9cf7d73c26,
    type: 2}
  m_PrefabInternal: {fileID: 0}
  m_GameObject: {fileID: 1044579752}
  m_LocalRotation: {x: -0.771958, y: -0.24381466, z: -0.5433886, w: 0.2221805}
  m_LocalPosition: {x: 16.31, y: 3.45, z: -8.91}
  m_LocalScale: {x: 0.45204753, y: 0.49333417, z: 0.3013644}
  m_Children: []
  m_Father: {fileID: 1822787865}
  m_RootOrder: 5
  m_LocalEulerAnglesHint: {x: -37.445004, y: -246.95999, z: 170.212}
--- !u!23 &1044579754
MeshRenderer:
  m_ObjectHideFlags: 0
  m_PrefabParentObject: {fileID: 23142563426610746, guid: 956df95a8cb6ee748abadc9cf7d73c26,
    type: 2}
  m_PrefabInternal: {fileID: 0}
  m_GameObject: {fileID: 1044579752}
  m_Enabled: 1
  m_CastShadows: 1
  m_ReceiveShadows: 1
  m_DynamicOccludee: 1
  m_MotionVectors: 1
  m_LightProbeUsage: 1
  m_ReflectionProbeUsage: 1
  m_Materials:
  - {fileID: 2100000, guid: 17ffcd4a6e0b0bb41a9449932833ca36, type: 2}
  m_StaticBatchInfo:
    firstSubMesh: 0
    subMeshCount: 0
  m_StaticBatchRoot: {fileID: 0}
  m_ProbeAnchor: {fileID: 0}
  m_LightProbeVolumeOverride: {fileID: 0}
  m_ScaleInLightmap: 1
  m_PreserveUVs: 0
  m_IgnoreNormalsForChartDetection: 0
  m_ImportantGI: 0
  m_StitchLightmapSeams: 0
  m_SelectedEditorRenderState: 3
  m_MinimumChartSize: 4
  m_AutoUVMaxDistance: 0.5
  m_AutoUVMaxAngle: 89
  m_LightmapParameters: {fileID: 0}
  m_SortingLayerID: 0
  m_SortingLayer: 0
  m_SortingOrder: 0
--- !u!33 &1044579755
MeshFilter:
  m_ObjectHideFlags: 0
  m_PrefabParentObject: {fileID: 33898611320616016, guid: 956df95a8cb6ee748abadc9cf7d73c26,
    type: 2}
  m_PrefabInternal: {fileID: 0}
  m_GameObject: {fileID: 1044579752}
  m_Mesh: {fileID: 4300014, guid: 6d0968d9cb3b4ae4fbede0bd2589dd03, type: 3}
--- !u!1 &1687578796
GameObject:
  m_ObjectHideFlags: 0
  m_PrefabParentObject: {fileID: 0}
  m_PrefabInternal: {fileID: 0}
  serializedVersion: 5
  m_Component:
  - component: {fileID: 164}
  - component: {fileID: 320}
  - component: {fileID: 572}
  - component: {fileID: 577}
  - component: {fileID: 571}
  - component: {fileID: 1687578797}
  m_Layer: 0
  m_Name: Main Camera
  m_TagString: MainCamera
  m_Icon: {fileID: 0}
  m_NavMeshLayer: 0
  m_StaticEditorFlags: 0
  m_IsActive: 1
--- !u!114 &1687578797
MonoBehaviour:
  m_ObjectHideFlags: 0
  m_PrefabParentObject: {fileID: 0}
  m_PrefabInternal: {fileID: 0}
  m_GameObject: {fileID: 1687578796}
  m_Enabled: 1
  m_EditorHideFlags: 0
  m_Script: {fileID: 11500000, guid: a67cf5608eb6c4b228afc4fd355b7a0d, type: 3}
  m_Name: 
  m_EditorClassIdentifier: 
--- !u!1 &1786145805
GameObject:
  m_ObjectHideFlags: 0
  m_PrefabParentObject: {fileID: 1792237510289818, guid: 73b3cf2dc9443284f9494120405a22c0,
    type: 2}
  m_PrefabInternal: {fileID: 341250059}
  serializedVersion: 5
  m_Component:
  - component: {fileID: 1786145809}
  - component: {fileID: 1786145808}
  - component: {fileID: 1786145807}
  - component: {fileID: 1786145806}
  m_Layer: 0
  m_Name: MobileWaterPlane
  m_TagString: Untagged
  m_Icon: {fileID: 0}
  m_NavMeshLayer: 0
  m_StaticEditorFlags: 0
  m_IsActive: 1
--- !u!23 &1786145806
MeshRenderer:
  m_ObjectHideFlags: 0
  m_PrefabParentObject: {fileID: 23020451168390496, guid: 73b3cf2dc9443284f9494120405a22c0,
    type: 2}
  m_PrefabInternal: {fileID: 341250059}
  m_GameObject: {fileID: 1786145805}
  m_Enabled: 1
  m_CastShadows: 1
  m_ReceiveShadows: 1
  m_DynamicOccludee: 1
  m_MotionVectors: 1
  m_LightProbeUsage: 1
  m_ReflectionProbeUsage: 1
  m_Materials:
  - {fileID: 2100000, guid: 240293a34f9e1ae49afd495d9ef1142e, type: 2}
  m_StaticBatchInfo:
    firstSubMesh: 0
    subMeshCount: 0
  m_StaticBatchRoot: {fileID: 0}
  m_ProbeAnchor: {fileID: 0}
  m_LightProbeVolumeOverride: {fileID: 0}
  m_ScaleInLightmap: 1
  m_PreserveUVs: 1
  m_IgnoreNormalsForChartDetection: 0
  m_ImportantGI: 0
  m_StitchLightmapSeams: 0
  m_SelectedEditorRenderState: 3
  m_MinimumChartSize: 4
  m_AutoUVMaxDistance: 0.5
  m_AutoUVMaxAngle: 89
  m_LightmapParameters: {fileID: 0}
  m_SortingLayerID: 0
  m_SortingLayer: 0
  m_SortingOrder: 0
--- !u!64 &1786145807
MeshCollider:
  m_ObjectHideFlags: 0
  m_PrefabParentObject: {fileID: 64611922237624996, guid: 73b3cf2dc9443284f9494120405a22c0,
    type: 2}
  m_PrefabInternal: {fileID: 341250059}
  m_GameObject: {fileID: 1786145805}
  m_Material: {fileID: 0}
  m_IsTrigger: 0
  m_Enabled: 1
  serializedVersion: 2
  m_Convex: 0
  m_InflateMesh: 0
  m_SkinWidth: 0.01
  m_Mesh: {fileID: 10209, guid: 0000000000000000e000000000000000, type: 0}
--- !u!33 &1786145808
MeshFilter:
  m_ObjectHideFlags: 0
  m_PrefabParentObject: {fileID: 33507878580722046, guid: 73b3cf2dc9443284f9494120405a22c0,
    type: 2}
  m_PrefabInternal: {fileID: 341250059}
  m_GameObject: {fileID: 1786145805}
  m_Mesh: {fileID: 10209, guid: 0000000000000000e000000000000000, type: 0}
--- !u!4 &1786145809
Transform:
  m_ObjectHideFlags: 0
  m_PrefabParentObject: {fileID: 4283422753506132, guid: 73b3cf2dc9443284f9494120405a22c0,
    type: 2}
  m_PrefabInternal: {fileID: 341250059}
  m_GameObject: {fileID: 1786145805}
  m_LocalRotation: {x: -0, y: -0, z: -0, w: 1}
  m_LocalPosition: {x: -0.58, y: -4, z: -1.7}
  m_LocalScale: {x: 10, y: 10, z: 10}
  m_Children: []
  m_Father: {fileID: 0}
  m_RootOrder: 1
  m_LocalEulerAnglesHint: {x: 0, y: 0, z: 0}
--- !u!1 &1822787864
GameObject:
  m_ObjectHideFlags: 0
  m_PrefabParentObject: {fileID: 1259598171758012, guid: 956df95a8cb6ee748abadc9cf7d73c26,
    type: 2}
  m_PrefabInternal: {fileID: 0}
  serializedVersion: 5
  m_Component:
  - component: {fileID: 1822787865}
  m_Layer: 0
  m_Name: rocks
  m_TagString: Untagged
  m_Icon: {fileID: 0}
  m_NavMeshLayer: 0
  m_StaticEditorFlags: 0
  m_IsActive: 1
--- !u!4 &1822787865
Transform:
  m_ObjectHideFlags: 0
  m_PrefabParentObject: {fileID: 4216947921020916, guid: 956df95a8cb6ee748abadc9cf7d73c26,
    type: 2}
  m_PrefabInternal: {fileID: 0}
  m_GameObject: {fileID: 1822787864}
  m_LocalRotation: {x: 0.41455036, y: 0.5728421, z: 0.57284194, w: 0.41455042}
  m_LocalPosition: {x: 11.555883, y: -9.956796, z: -5.717855}
  m_LocalScale: {x: 1, y: 1, z: 1}
  m_Children:
  - {fileID: 392596095}
  - {fileID: 114460000}
  - {fileID: 538618546}
  - {fileID: 1982968100}
  - {fileID: 741847618}
  - {fileID: 1044579753}
  m_Father: {fileID: 327760561}
  m_RootOrder: 1
  m_LocalEulerAnglesHint: {x: 0, y: 0, z: 0}
--- !u!1 &1982968099
GameObject:
  m_ObjectHideFlags: 0
  m_PrefabParentObject: {fileID: 1442005664540894, guid: 956df95a8cb6ee748abadc9cf7d73c26,
    type: 2}
  m_PrefabInternal: {fileID: 0}
  serializedVersion: 5
  m_Component:
  - component: {fileID: 1982968100}
  - component: {fileID: 1982968102}
  - component: {fileID: 1982968101}
  m_Layer: 0
  m_Name: Rock2 (2)
  m_TagString: Untagged
  m_Icon: {fileID: 0}
  m_NavMeshLayer: 0
  m_StaticEditorFlags: 0
  m_IsActive: 1
--- !u!4 &1982968100
Transform:
  m_ObjectHideFlags: 0
  m_PrefabParentObject: {fileID: 4425625360132176, guid: 956df95a8cb6ee748abadc9cf7d73c26,
    type: 2}
  m_PrefabInternal: {fileID: 0}
  m_GameObject: {fileID: 1982968099}
  m_LocalRotation: {x: -0.89097214, y: -0.42695162, z: -0.0006585558, w: 0.15453345}
  m_LocalPosition: {x: 16.19, y: 1.95, z: -8.94}
  m_LocalScale: {x: 0.929907, y: 0.9299072, z: 0.92990726}
  m_Children: []
  m_Father: {fileID: 1822787865}
  m_RootOrder: 3
  m_LocalEulerAnglesHint: {x: -16.018002, y: -172.18001, z: 127.69101}
--- !u!23 &1982968101
MeshRenderer:
  m_ObjectHideFlags: 0
  m_PrefabParentObject: {fileID: 23082736741503428, guid: 956df95a8cb6ee748abadc9cf7d73c26,
    type: 2}
  m_PrefabInternal: {fileID: 0}
  m_GameObject: {fileID: 1982968099}
  m_Enabled: 1
  m_CastShadows: 1
  m_ReceiveShadows: 1
  m_DynamicOccludee: 1
  m_MotionVectors: 1
  m_LightProbeUsage: 1
  m_ReflectionProbeUsage: 1
  m_Materials:
  - {fileID: 2100000, guid: 17ffcd4a6e0b0bb41a9449932833ca36, type: 2}
  m_StaticBatchInfo:
    firstSubMesh: 0
    subMeshCount: 0
  m_StaticBatchRoot: {fileID: 0}
  m_ProbeAnchor: {fileID: 0}
  m_LightProbeVolumeOverride: {fileID: 0}
  m_ScaleInLightmap: 1
  m_PreserveUVs: 0
  m_IgnoreNormalsForChartDetection: 0
  m_ImportantGI: 0
  m_StitchLightmapSeams: 0
  m_SelectedEditorRenderState: 3
  m_MinimumChartSize: 4
  m_AutoUVMaxDistance: 0.5
  m_AutoUVMaxAngle: 89
  m_LightmapParameters: {fileID: 0}
  m_SortingLayerID: 0
  m_SortingLayer: 0
  m_SortingOrder: 0
--- !u!33 &1982968102
MeshFilter:
  m_ObjectHideFlags: 0
  m_PrefabParentObject: {fileID: 33681924798952006, guid: 956df95a8cb6ee748abadc9cf7d73c26,
    type: 2}
  m_PrefabInternal: {fileID: 0}
  m_GameObject: {fileID: 1982968099}
  m_Mesh: {fileID: 4300014, guid: 6d0968d9cb3b4ae4fbede0bd2589dd03, type: 3}
